
T27D4 000:341 SEGGER J-Link V5.10h Log File (0000ms, 0295ms total)
T27D4 000:341 DLL Compiled: Jan 21 2016 19:24:29 (0000ms, 0295ms total)
T27D4 000:341 Logging started @ 2016-06-27 10:30 (0000ms, 0295ms total)
T27D4 000:341 JLINK_SetWarnOutHandler(...) (0000ms, 0295ms total)
T27D4 000:341 JLINK_OpenEx(...)
Firmware: J-Link OB-SAM3U128-V2-NordicSemi compiled Jan 21 2016 17:58:20
Hardware: V1.00
S/N: 682237863  returns O.K. (0268ms, 0563ms total)
T27D4 000:609 JLINK_SetErrorOutHandler(...) (0000ms, 0563ms total)
T27D4 000:609 JLINK_ExecCommand("ProjectFile = "C:\Users\Chris\Desktop\nRF52 Development\examples\ble_peripheral\ble_app_uart\pca10040\s132\arm5_no_packs\JLinkSettings.ini"", ...)  returns 0x00 (0002ms, 0565ms total)
T27D4 000:622 JLINK_ExecCommand("Device = nRF52832_xxAA", ...)Device "NRF52832_XXAA" selected.  returns 0x00 (0015ms, 0580ms total)
T27D4 000:637 JLINK_ExecCommand("DisableConnectionTimeout", ...)  returns 0x01 (0000ms, 0580ms total)
T27D4 000:637 JLINK_GetHardwareVersion()  returns 0x2710 (0000ms, 0580ms total)
T27D4 000:637 JLINK_GetDLLVersion()  returns 51008 (0000ms, 0580ms total)
T27D4 000:637 JLINK_GetFirmwareString(...) (0000ms, 0580ms total)
T27D4 000:655 JLINK_GetDLLVersion()  returns 51008 (0000ms, 0580ms total)
T27D4 000:655 JLINK_GetCompileDateTime() (0000ms, 0580ms total)
T27D4 000:659 JLINK_GetFirmwareString(...) (0000ms, 0580ms total)
T27D4 000:662 JLINK_GetHardwareVersion()  returns 0x2710 (0000ms, 0580ms total)
T27D4 000:672 JLINK_TIF_Select(JLINKARM_TIF_SWD)  returns 0x00 (0002ms, 0582ms total)
T27D4 000:674 JLINK_SetSpeed(5000) (0000ms, 0582ms total)
T27D4 000:674 JLINK_GetId() >0x108 TIF>Found SWD-DP with ID 0x2BA01477 >0x0D TIF> >0x28 TIF> >0x0D TIF> >0x28 TIF> >0x0D TIF> >0x28 TIF> >0x0D TIF> >0x28 TIF> >0x35 TIF> >0x0D TIF> >0x28 TIF> >0x0D TIF> >0x28 TIF> >0x35 TIF> >0x35 TIF> >0x35 TIF> >0x0D TIF> >0x28 TIF> >0x0D TIF> >0x28 TIF> >0x0D TIF> >0x28 TIF> >0x35 TIF> >0x35 TIF> >0x0D TIF> >0x28 TIF> >0x35 TIF> >0x35 TIF>Found Cortex-M4 r0p1, Little endian. -- CPU_ReadMem(4 bytes @ 0xE000EDF0) -- CPU_ReadMem(4 bytes @ 0xE0002000)
FPUnit: 6 code (BP) slots and 2 literal slots -- CPU_ReadMem(4 bytes @ 0xE000EDFC) -- CPU_ReadMem(4 bytes @ 0xE0001000) -- CPU_WriteMem(4 bytes @ 0xE0001000) -- CPU_ReadMem(4 bytes @ 0xE000ED88) -- CPU_WriteMem(4 bytes @ 0xE000ED88) -- CPU_ReadMem(4 bytes @ 0xE000ED88) -- CPU_WriteMem(4 bytes @ 0xE000ED88)CoreSight components:ROMTbl 0 @ E00FF000 -- CPU_ReadMem(16 bytes @ 0xE00FF000) -- CPU_ReadMem(16 bytes @ 0xE000EFF0) -- CPU_ReadMem(16 bytes @ 0xE000EFE0)
ROMTbl 0 [0]: FFF0F000, CID: B105E00D, PID: 000BB00C SCS -- CPU_ReadMem(16 bytes @ 0xE0001FF0) -- CPU_ReadMem(16 bytes @ 0xE0001FE0)ROMTbl 0 [1]: FFF02000, CID: B105E00D, PID: 003BB002 DWT -- CPU_ReadMem(16 bytes @ 0xE0002FF0) -- CPU_ReadMem(16 bytes @ 0xE0002FE0)ROMTbl 0 [2]: FFF03000, CID: B105E00D, PID: 002BB003 FPB -- CPU_ReadMem(16 bytes @ 0xE0000FF0) -- CPU_ReadMem(16 bytes @ 0xE0000FE0)ROMTbl 0 [3]: FFF01000, CID: B105E00D, PID: 003BB001 ITM -- CPU_ReadMem(16 bytes @ 0xE00FF010)
 -- CPU_ReadMem(16 bytes @ 0xE0040FF0) -- CPU_ReadMem(16 bytes @ 0xE0040FE0)ROMTbl 0 [4]: FFF41000, CID: B105900D, PID: 000BB9A1 TPIU -- CPU_ReadMem(16 bytes @ 0xE0041FF0) -- CPU_ReadMem(16 bytes @ 0xE0041FE0)ROMTbl 0 [5]: FFF42000, CID: B105900D, PID: 000BB925 ETM >0x35 TIF>  returns 0x2BA01477 (0063ms, 0645ms total)
T27D4 000:737 JLINK_GetDLLVersion()  returns 51008 (0000ms, 0645ms total)
T27D4 000:737 JLINK_CORE_GetFound()  returns 0xE0000FF (0000ms, 0645ms total)
T27D4 000:737 JLINK_GetDebugInfo(0x100) -- Value=0xE00FF000  returns 0x00 (0000ms, 0645ms total)
T27D4 000:739 JLINK_GetDebugInfo(0x100) -- Value=0xE00FF000  returns 0x00 (0000ms, 0645ms total)
T27D4 000:739 JLINK_GetDebugInfo(0x101) -- Value=0xE0041000  returns 0x00 (0000ms, 0645ms total)
T27D4 000:739 JLINK_GetDebugInfo(0x102) -- Value=0x00000000  returns 0x00 (0000ms, 0645ms total)
T27D4 000:739 JLINK_GetDebugInfo(0x103) -- Value=0xE0040000  returns 0x00 (0000ms, 0645ms total)
T27D4 000:739 JLINK_GetDebugInfo(0x104) -- Value=0xE0000000  returns 0x00 (0000ms, 0645ms total)
T27D4 000:739 JLINK_GetDebugInfo(0x105) -- Value=0xE0001000  returns 0x00 (0000ms, 0645ms total)
T27D4 000:739 JLINK_GetDebugInfo(0x106) -- Value=0xE0002000  returns 0x00 (0000ms, 0645ms total)
T27D4 000:739 JLINK_GetDebugInfo(0x107) -- Value=0xE000E000  returns 0x00 (0000ms, 0645ms total)
T27D4 000:739 JLINK_GetDebugInfo(0x10C) -- Value=0xE000EDF0  returns 0x00 (0000ms, 0645ms total)
T27D4 000:739 JLINK_ReadMemU32(0xE000EF40, 0x0001 Items, ...) -- CPU is running -- CPU_ReadMem(4 bytes @ 0xE000EF40) - Data: 21 00 11 10  returns 0x01 (0001ms, 0646ms total)
T27D4 000:740 JLINK_ReadMemU32(0xE000EF44, 0x0001 Items, ...) -- CPU is running -- CPU_ReadMem(4 bytes @ 0xE000EF44) - Data: 11 00 00 11  returns 0x01 (0001ms, 0647ms total)
T27D4 000:741 JLINK_ReadMemU32(0xE000ED00, 0x0001 Items, ...) -- CPU is running -- CPU_ReadMem(4 bytes @ 0xE000ED00) - Data: 41 C2 0F 41  returns 0x01 (0001ms, 0648ms total)
T27D4 000:742 JLINK_SetResetType(JLINKARM_RESET_TYPE_NORMAL)  returns JLINKARM_RESET_TYPE_NORMAL (0000ms, 0648ms total)
T27D4 000:742 JLINK_Reset() -- CPU is running -- CPU_WriteMem(4 bytes @ 0xE000EDF0) -- CPU is running -- CPU_WriteMem(4 bytes @ 0xE000EDFC) >0x35 TIF> -- CPU is running -- CPU_WriteMem(4 bytes @ 0xE000ED0C) -- CPU is running -- CPU_ReadMem(4 bytes @ 0xE000EDF0) -- CPU is running -- CPU_ReadMem(4 bytes @ 0xE000EDF0) -- CPU is running -- CPU_WriteMem(4 bytes @ 0xE000EDF0) -- CPU is running -- CPU_WriteMem(4 bytes @ 0xE000EDFC) -- CPU is running -- CPU_ReadMem(4 bytes @ 0xE000EDF0)
 -- CPU_WriteMem(4 bytes @ 0xE0002000) -- CPU_ReadMem(4 bytes @ 0xE000EDFC) -- CPU_ReadMem(4 bytes @ 0xE0001000) (0027ms, 0675ms total)
T27D4 000:769 JLINK_Halt()  returns 0x00 (0000ms, 0675ms total)
T27D4 000:769 JLINK_IsHalted()  returns TRUE (0000ms, 0675ms total)
T27D4 000:769 JLINK_ReadMemU32(0xE000EDF0, 0x0001 Items, ...) -- CPU_ReadMem(4 bytes @ 0xE000EDF0) - Data: 03 00 03 00  returns 0x01 (0001ms, 0676ms total)
T27D4 000:770 JLINK_WriteU32(0xE000EDF0, 0xA05F0003) -- CPU_WriteMem(4 bytes @ 0xE000EDF0)  returns 0x00 (0001ms, 0677ms total)
T27D4 000:771 JLINK_WriteU32(0xE000EDFC, 0x01000000) -- CPU_WriteMem(4 bytes @ 0xE000EDFC)  returns 0x00 (0000ms, 0677ms total)
T27D4 000:778 JLINK_GetHWStatus(...)  returns 0x00 (0001ms, 0678ms total)
T27D4 000:784 JLINK_GetNumBPUnits(Type = 0xFFFFFF00)  returns 0x06 (0000ms, 0678ms total)
T27D4 000:784 JLINK_GetNumBPUnits(Type = 0xF0)  returns 0x2000 (0000ms, 0678ms total)
T27D4 000:784 JLINK_GetNumWPUnits()  returns 0x04 (0000ms, 0678ms total)
T27D4 000:789 JLINK_GetSpeed()  returns 0x3E8 (0000ms, 0678ms total)
T27D4 000:792 JLINK_ReadMemU32(0xE000E004, 0x0001 Items, ...) -- CPU_ReadMem(4 bytes @ 0xE000E004) - Data: 01 00 00 00  returns 0x01 (0001ms, 0679ms total)
T27D4 000:793 JLINK_ReadMemU32(0xE000E004, 0x0001 Items, ...) -- CPU_ReadMem(4 bytes @ 0xE000E004) - Data: 01 00 00 00  returns 0x01 (0001ms, 0680ms total)
T27D4 000:794 JLINK_WriteMem(0xE0001000, 0x001C Bytes, ...) - Data: 01 00 00 00 00 00 00 00 00 00 00 00 00 00 00 00 ... -- CPU_WriteMem(28 bytes @ 0xE0001000)  returns 0x1C (0002ms, 0682ms total)
T27D4 000:796 JLINK_ReadMem (0xE0001000, 0x001C Bytes, ...) -- CPU_ReadMem(28 bytes @ 0xE0001000) - Data: 01 00 00 40 00 00 00 00 00 00 00 00 00 00 00 00 ...  returns 0x00 (0001ms, 0683ms total)
T27D4 000:797 JLINK_Halt()  returns 0x00 (0000ms, 0683ms total)
T27D4 000:797 JLINK_IsHalted()  returns TRUE (0000ms, 0683ms total)
T27D4 000:799 JLINK_WriteMem(0x20000000, 0x01F4 Bytes, ...) - Data: 00 BE 0A E0 0D 78 2D 06 68 40 08 24 40 00 00 D3 ... -- CPU_WriteMem(500 bytes @ 0x20000000)  returns 0x1F4 (0008ms, 0691ms total)
T27D4 000:807 JLINK_WriteReg(R0, 0x00000000)  returns 0x00 (0000ms, 0691ms total)
T27D4 000:807 JLINK_WriteReg(R1, 0x03D09000)  returns 0x00 (0000ms, 0691ms total)
T27D4 000:807 JLINK_WriteReg(R2, 0x00000001)  returns 0x00 (0000ms, 0691ms total)
T27D4 000:807 JLINK_WriteReg(R3, 0x00000000)  returns 0x00 (0000ms, 0691ms total)
T27D4 000:807 JLINK_WriteReg(R4, 0x00000000)  returns 0x00 (0000ms, 0691ms total)
T27D4 000:807 JLINK_WriteReg(R5, 0x00000000)  returns 0x00 (0000ms, 0691ms total)
T27D4 000:807 JLINK_WriteReg(R6, 0x00000000)  returns 0x00 (0000ms, 0691ms total)
T27D4 000:807 JLINK_WriteReg(R7, 0x00000000)  returns 0x00 (0000ms, 0691ms total)
T27D4 000:807 JLINK_WriteReg(R8, 0x00000000)  returns 0x00 (0000ms, 0691ms total)
T27D4 000:807 JLINK_WriteReg(R9, 0x200001F0)  returns 0x00 (0000ms, 0691ms total)
T27D4 000:807 JLINK_WriteReg(R10, 0x00000000)  returns 0x00 (0000ms, 0691ms total)
T27D4 000:807 JLINK_WriteReg(R11, 0x00000000)  returns 0x00 (0000ms, 0691ms total)
T27D4 000:807 JLINK_WriteReg(R12, 0x00000000)  returns 0x00 (0000ms, 0691ms total)
T27D4 000:807 JLINK_WriteReg(R13 (SP), 0x20002000)  returns 0x00 (0000ms, 0691ms total)
T27D4 000:807 JLINK_WriteReg(R14, 0x20000001)  returns 0x00 (0000ms, 0691ms total)
T27D4 000:807 JLINK_WriteReg(R15 (PC), 0x20000028)  returns 0x00 (0000ms, 0691ms total)
T27D4 000:807 JLINK_WriteReg(XPSR, 0x01000000)  returns 0x00 (0000ms, 0691ms total)
T27D4 000:807 JLINK_WriteReg(MSP, 0x20002000)  returns 0x00 (0000ms, 0691ms total)
T27D4 000:807 JLINK_WriteReg(PSP, 0x20002000)  returns 0x00 (0000ms, 0691ms total)
T27D4 000:807 JLINK_WriteReg(CFBP, 0x00000000)  returns 0x00 (0000ms, 0691ms total)
T27D4 000:807 JLINK_SetBPEx(Addr = 0x20000000, Type = 0xFFFFFFF2) -- CPU_ReadMem(2 bytes @ 0x20000000)  returns 0x00000001 (0001ms, 0692ms total)
T27D4 000:808 JLINK_Go() -- CPU_WriteMem(2 bytes @ 0x20000000) -- CPU_ReadMem(4 bytes @ 0xE0001000) -- CPU_WriteMem(4 bytes @ 0xE0002008) -- CPU_WriteMem(4 bytes @ 0xE000200C) -- CPU_WriteMem(4 bytes @ 0xE0002010) -- CPU_WriteMem(4 bytes @ 0xE0002014) -- CPU_WriteMem(4 bytes @ 0xE0002018) -- CPU_WriteMem(4 bytes @ 0xE000201C) -- CPU_WriteMem(4 bytes @ 0xE0001004) (0010ms, 0702ms total)
T27D4 000:818 JLINK_IsHalted() -- CPU_ReadMem(2 bytes @ 0x20000000)  returns TRUE (0008ms, 0710ms total)
T27D4 000:826 JLINK_ReadReg(R15 (PC))  returns 0x20000000 (0000ms, 0702ms total)
T27D4 000:826 JLINK_ClrBPEx(BPHandle = 0x00000001)  returns 0x00 (0000ms, 0702ms total)
T27D4 000:826 JLINK_ReadReg(R0)  returns 0x00000000 (0000ms, 0702ms total)
T27D4 000:826 JLINK_WriteReg(R0, 0x0001C000)  returns 0x00 (0000ms, 0702ms total)
T27D4 000:826 JLINK_WriteReg(R1, 0x00001000)  returns 0x00 (0000ms, 0702ms total)
T27D4 000:826 JLINK_WriteReg(R2, 0x000000FF)  returns 0x00 (0000ms, 0702ms total)
T27D4 000:826 JLINK_WriteReg(R3, 0x00000000)  returns 0x00 (0000ms, 0702ms total)
T27D4 000:826 JLINK_WriteReg(R4, 0x00000000)  returns 0x00 (0000ms, 0702ms total)
T27D4 000:826 JLINK_WriteReg(R5, 0x00000000)  returns 0x00 (0000ms, 0702ms total)
T27D4 000:826 JLINK_WriteReg(R6, 0x00000000)  returns 0x00 (0001ms, 0703ms total)
T27D4 000:827 JLINK_WriteReg(R7, 0x00000000)  returns 0x00 (0000ms, 0703ms total)
T27D4 000:827 JLINK_WriteReg(R8, 0x00000000)  returns 0x00 (0000ms, 0703ms total)
T27D4 000:827 JLINK_WriteReg(R9, 0x200001F0)  returns 0x00 (0000ms, 0703ms total)
T27D4 000:827 JLINK_WriteReg(R10, 0x00000000)  returns 0x00 (0000ms, 0703ms total)
T27D4 000:827 JLINK_WriteReg(R11, 0x00000000)  returns 0x00 (0000ms, 0703ms total)
T27D4 000:827 JLINK_WriteReg(R12, 0x00000000)  returns 0x00 (0000ms, 0703ms total)
T27D4 000:827 JLINK_WriteReg(R13 (SP), 0x20002000)  returns 0x00 (0000ms, 0703ms total)
T27D4 000:827 JLINK_WriteReg(R14, 0x20000001)  returns 0x00 (0000ms, 0703ms total)
T27D4 000:827 JLINK_WriteReg(R15 (PC), 0x200000E4)  returns 0x00 (0000ms, 0703ms total)
T27D4 000:827 JLINK_WriteReg(XPSR, 0x01000000)  returns 0x00 (0000ms, 0703ms total)
T27D4 000:827 JLINK_WriteReg(MSP, 0x20002000)  returns 0x00 (0000ms, 0703ms total)
T27D4 000:827 JLINK_WriteReg(PSP, 0x20002000)  returns 0x00 (0000ms, 0703ms total)
T27D4 000:827 JLINK_WriteReg(CFBP, 0x00000000)  returns 0x00 (0000ms, 0703ms total)
T27D4 000:827 JLINK_SetBPEx(Addr = 0x20000000, Type = 0xFFFFFFF2)  returns 0x00000002 (0000ms, 0703ms total)
T27D4 000:827 JLINK_Go() -- CPU_ReadMem(4 bytes @ 0xE0001000) (0004ms, 0707ms total)
T27D4 000:831 JLINK_IsHalted() -- CPU_ReadMem(2 bytes @ 0x20000000)  returns TRUE (0008ms, 0715ms total)
T27D4 000:840 JLINK_ReadReg(R15 (PC))  returns 0x20000000 (0000ms, 0707ms total)
T27D4 000:840 JLINK_ClrBPEx(BPHandle = 0x00000002)  returns 0x00 (0000ms, 0707ms total)
T27D4 000:840 JLINK_ReadReg(R0)  returns 0x00000001 (0000ms, 0707ms total)
T27D4 000:840 JLINK_WriteReg(R0, 0x0001C000)  returns 0x00 (0000ms, 0707ms total)
T27D4 000:840 JLINK_WriteReg(R1, 0x00001000)  returns 0x00 (0000ms, 0707ms total)
T27D4 000:840 JLINK_WriteReg(R2, 0x000000FF)  returns 0x00 (0000ms, 0707ms total)
T27D4 000:840 JLINK_WriteReg(R3, 0x00000000)  returns 0x00 (0000ms, 0707ms total)
T27D4 000:840 JLINK_WriteReg(R4, 0x00000000)  returns 0x00 (0000ms, 0707ms total)
T27D4 000:840 JLINK_WriteReg(R5, 0x00000000)  returns 0x00 (0000ms, 0707ms total)
T27D4 000:840 JLINK_WriteReg(R6, 0x00000000)  returns 0x00 (0000ms, 0707ms total)
T27D4 000:840 JLINK_WriteReg(R7, 0x00000000)  returns 0x00 (0000ms, 0707ms total)
T27D4 000:840 JLINK_WriteReg(R8, 0x00000000)  returns 0x00 (0000ms, 0707ms total)
T27D4 000:840 JLINK_WriteReg(R9, 0x200001F0)  returns 0x00 (0000ms, 0707ms total)
T27D4 000:840 JLINK_WriteReg(R10, 0x00000000)  returns 0x00 (0000ms, 0707ms total)
T27D4 000:840 JLINK_WriteReg(R11, 0x00000000)  returns 0x00 (0000ms, 0707ms total)
T27D4 000:840 JLINK_WriteReg(R12, 0x00000000)  returns 0x00 (0000ms, 0707ms total)
T27D4 000:840 JLINK_WriteReg(R13 (SP), 0x20002000)  returns 0x00 (0001ms, 0708ms total)
T27D4 000:841 JLINK_WriteReg(R14, 0x20000001)  returns 0x00 (0000ms, 0708ms total)
T27D4 000:841 JLINK_WriteReg(R15 (PC), 0x200000A2)  returns 0x00 (0000ms, 0708ms total)
T27D4 000:841 JLINK_WriteReg(XPSR, 0x01000000)  returns 0x00 (0000ms, 0708ms total)
T27D4 000:841 JLINK_WriteReg(MSP, 0x20002000)  returns 0x00 (0000ms, 0708ms total)
T27D4 000:841 JLINK_WriteReg(PSP, 0x20002000)  returns 0x00 (0000ms, 0708ms total)
T27D4 000:841 JLINK_WriteReg(CFBP, 0x00000000)  returns 0x00 (0000ms, 0708ms total)
T27D4 000:841 JLINK_SetBPEx(Addr = 0x20000000, Type = 0xFFFFFFF2)  returns 0x00000003 (0000ms, 0708ms total)
T27D4 000:841 JLINK_Go() -- CPU_ReadMem(4 bytes @ 0xE0001000) (0004ms, 0712ms total)
T27D4 000:845 JLINK_IsHalted()  returns FALSE (0001ms, 0713ms total)
T27D4 000:891 JLINK_IsHalted() -- CPU_ReadMem(2 bytes @ 0x20000000)  returns TRUE (0008ms, 0720ms total)
T27D4 000:899 JLINK_ReadReg(R15 (PC))  returns 0x20000000 (0000ms, 0712ms total)
T27D4 000:899 JLINK_ClrBPEx(BPHandle = 0x00000003)  returns 0x00 (0000ms, 0712ms total)
T27D4 000:899 JLINK_ReadReg(R0)  returns 0x00000000 (0000ms, 0712ms total)
T27D4 000:899 JLINK_WriteReg(R0, 0x0001D000)  returns 0x00 (0000ms, 0712ms total)
T27D4 000:899 JLINK_WriteReg(R1, 0x00001000)  returns 0x00 (0000ms, 0712ms total)
T27D4 000:899 JLINK_WriteReg(R2, 0x000000FF)  returns 0x00 (0000ms, 0712ms total)
T27D4 000:900 JLINK_WriteReg(R3, 0x00000000)  returns 0x00 (0000ms, 0712ms total)
T27D4 000:900 JLINK_WriteReg(R4, 0x00000000)  returns 0x00 (0000ms, 0712ms total)
T27D4 000:900 JLINK_WriteReg(R5, 0x00000000)  returns 0x00 (0000ms, 0712ms total)
T27D4 000:900 JLINK_WriteReg(R6, 0x00000000)  returns 0x00 (0000ms, 0712ms total)
T27D4 000:900 JLINK_WriteReg(R7, 0x00000000)  returns 0x00 (0000ms, 0712ms total)
T27D4 000:900 JLINK_WriteReg(R8, 0x00000000)  returns 0x00 (0000ms, 0712ms total)
T27D4 000:900 JLINK_WriteReg(R9, 0x200001F0)  returns 0x00 (0000ms, 0712ms total)
T27D4 000:900 JLINK_WriteReg(R10, 0x00000000)  returns 0x00 (0000ms, 0712ms total)
T27D4 000:900 JLINK_WriteReg(R11, 0x00000000)  returns 0x00 (0000ms, 0712ms total)
T27D4 000:900 JLINK_WriteReg(R12, 0x00000000)  returns 0x00 (0000ms, 0712ms total)
T27D4 000:900 JLINK_WriteReg(R13 (SP), 0x20002000)  returns 0x00 (0000ms, 0712ms total)
T27D4 000:900 JLINK_WriteReg(R14, 0x20000001)  returns 0x00 (0000ms, 0712ms total)
T27D4 000:900 JLINK_WriteReg(R15 (PC), 0x200000E4)  returns 0x00 (0000ms, 0712ms total)
T27D4 000:900 JLINK_WriteReg(XPSR, 0x01000000)  returns 0x00 (0000ms, 0712ms total)
T27D4 000:900 JLINK_WriteReg(MSP, 0x20002000)  returns 0x00 (0000ms, 0712ms total)
T27D4 000:900 JLINK_WriteReg(PSP, 0x20002000)  returns 0x00 (0000ms, 0712ms total)
T27D4 000:900 JLINK_WriteReg(CFBP, 0x00000000)  returns 0x00 (0000ms, 0712ms total)
T27D4 000:900 JLINK_SetBPEx(Addr = 0x20000000, Type = 0xFFFFFFF2)  returns 0x00000004 (0000ms, 0712ms total)
T27D4 000:900 JLINK_Go() -- CPU_ReadMem(4 bytes @ 0xE0001000) (0005ms, 0717ms total)
T27D4 000:905 JLINK_IsHalted() -- CPU_ReadMem(2 bytes @ 0x20000000)  returns TRUE (0008ms, 0725ms total)
T27D4 000:913 JLINK_ReadReg(R15 (PC))  returns 0x20000000 (0000ms, 0717ms total)
T27D4 000:913 JLINK_ClrBPEx(BPHandle = 0x00000004)  returns 0x00 (0000ms, 0717ms total)
T27D4 000:913 JLINK_ReadReg(R0)  returns 0x00000001 (0000ms, 0717ms total)
T27D4 000:913 JLINK_WriteReg(R0, 0x0001D000)  returns 0x00 (0000ms, 0717ms total)
T27D4 000:913 JLINK_WriteReg(R1, 0x00001000)  returns 0x00 (0000ms, 0717ms total)
T27D4 000:913 JLINK_WriteReg(R2, 0x000000FF)  returns 0x00 (0000ms, 0717ms total)
T27D4 000:913 JLINK_WriteReg(R3, 0x00000000)  returns 0x00 (0000ms, 0717ms total)
T27D4 000:913 JLINK_WriteReg(R4, 0x00000000)  returns 0x00 (0000ms, 0717ms total)
T27D4 000:913 JLINK_WriteReg(R5, 0x00000000)  returns 0x00 (0000ms, 0717ms total)
T27D4 000:913 JLINK_WriteReg(R6, 0x00000000)  returns 0x00 (0000ms, 0717ms total)
T27D4 000:913 JLINK_WriteReg(R7, 0x00000000)  returns 0x00 (0000ms, 0717ms total)
T27D4 000:913 JLINK_WriteReg(R8, 0x00000000)  returns 0x00 (0000ms, 0717ms total)
T27D4 000:913 JLINK_WriteReg(R9, 0x200001F0)  returns 0x00 (0000ms, 0717ms total)
T27D4 000:913 JLINK_WriteReg(R10, 0x00000000)  returns 0x00 (0000ms, 0717ms total)
T27D4 000:913 JLINK_WriteReg(R11, 0x00000000)  returns 0x00 (0000ms, 0717ms total)
T27D4 000:913 JLINK_WriteReg(R12, 0x00000000)  returns 0x00 (0000ms, 0717ms total)
T27D4 000:913 JLINK_WriteReg(R13 (SP), 0x20002000)  returns 0x00 (0001ms, 0718ms total)
T27D4 000:914 JLINK_WriteReg(R14, 0x20000001)  returns 0x00 (0000ms, 0718ms total)
T27D4 000:914 JLINK_WriteReg(R15 (PC), 0x200000A2)  returns 0x00 (0000ms, 0718ms total)
T27D4 000:914 JLINK_WriteReg(XPSR, 0x01000000)  returns 0x00 (0000ms, 0718ms total)
T27D4 000:914 JLINK_WriteReg(MSP, 0x20002000)  returns 0x00 (0000ms, 0718ms total)
T27D4 000:914 JLINK_WriteReg(PSP, 0x20002000)  returns 0x00 (0000ms, 0718ms total)
T27D4 000:914 JLINK_WriteReg(CFBP, 0x00000000)  returns 0x00 (0000ms, 0718ms total)
T27D4 000:914 JLINK_SetBPEx(Addr = 0x20000000, Type = 0xFFFFFFF2)  returns 0x00000005 (0000ms, 0718ms total)
T27D4 000:914 JLINK_Go() -- CPU_ReadMem(4 bytes @ 0xE0001000) (0004ms, 0722ms total)
T27D4 000:918 JLINK_IsHalted()  returns FALSE (0001ms, 0723ms total)
T27D4 000:925 JLINK_IsHalted() -- CPU_ReadMem(2 bytes @ 0x20000000)  returns TRUE (0007ms, 0729ms total)
T27D4 000:932 JLINK_ReadReg(R15 (PC))  returns 0x20000000 (0001ms, 0723ms total)
T27D4 000:933 JLINK_ClrBPEx(BPHandle = 0x00000005)  returns 0x00 (0000ms, 0723ms total)
T27D4 000:933 JLINK_ReadReg(R0)  returns 0x00000000 (0000ms, 0723ms total)
T27D4 000:933 JLINK_WriteReg(R0, 0x0001E000)  returns 0x00 (0000ms, 0723ms total)
T27D4 000:933 JLINK_WriteReg(R1, 0x00001000)  returns 0x00 (0000ms, 0723ms total)
T27D4 000:933 JLINK_WriteReg(R2, 0x000000FF)  returns 0x00 (0000ms, 0723ms total)
T27D4 000:933 JLINK_WriteReg(R3, 0x00000000)  returns 0x00 (0000ms, 0723ms total)
T27D4 000:933 JLINK_WriteReg(R4, 0x00000000)  returns 0x00 (0000ms, 0723ms total)
T27D4 000:933 JLINK_WriteReg(R5, 0x00000000)  returns 0x00 (0000ms, 0723ms total)
T27D4 000:933 JLINK_WriteReg(R6, 0x00000000)  returns 0x00 (0000ms, 0723ms total)
T27D4 000:933 JLINK_WriteReg(R7, 0x00000000)  returns 0x00 (0000ms, 0723ms total)
T27D4 000:933 JLINK_WriteReg(R8, 0x00000000)  returns 0x00 (0000ms, 0723ms total)
T27D4 000:933 JLINK_WriteReg(R9, 0x200001F0)  returns 0x00 (0000ms, 0723ms total)
T27D4 000:933 JLINK_WriteReg(R10, 0x00000000)  returns 0x00 (0000ms, 0723ms total)
T27D4 000:933 JLINK_WriteReg(R11, 0x00000000)  returns 0x00 (0000ms, 0723ms total)
T27D4 000:933 JLINK_WriteReg(R12, 0x00000000)  returns 0x00 (0000ms, 0723ms total)
T27D4 000:933 JLINK_WriteReg(R13 (SP), 0x20002000)  returns 0x00 (0000ms, 0723ms total)
T27D4 000:933 JLINK_WriteReg(R14, 0x20000001)  returns 0x00 (0000ms, 0723ms total)
T27D4 000:933 JLINK_WriteReg(R15 (PC), 0x200000E4)  returns 0x00 (0000ms, 0723ms total)
T27D4 000:933 JLINK_WriteReg(XPSR, 0x01000000)  returns 0x00 (0000ms, 0723ms total)
T27D4 000:933 JLINK_WriteReg(MSP, 0x20002000)  returns 0x00 (0000ms, 0723ms total)
T27D4 000:933 JLINK_WriteReg(PSP, 0x20002000)  returns 0x00 (0000ms, 0723ms total)
T27D4 000:933 JLINK_WriteReg(CFBP, 0x00000000)  returns 0x00 (0000ms, 0723ms total)
T27D4 000:933 JLINK_SetBPEx(Addr = 0x20000000, Type = 0xFFFFFFF2)  returns 0x00000006 (0000ms, 0723ms total)
T27D4 000:933 JLINK_Go() -- CPU_ReadMem(4 bytes @ 0xE0001000) (0005ms, 0728ms total)
T27D4 000:938 JLINK_IsHalted() -- CPU_ReadMem(2 bytes @ 0x20000000)  returns TRUE (0008ms, 0736ms total)
T27D4 000:946 JLINK_ReadReg(R15 (PC))  returns 0x20000000 (0000ms, 0728ms total)
T27D4 000:946 JLINK_ClrBPEx(BPHandle = 0x00000006)  returns 0x00 (0000ms, 0728ms total)
T27D4 000:946 JLINK_ReadReg(R0)  returns 0x00000001 (0000ms, 0728ms total)
T27D4 000:946 JLINK_WriteReg(R0, 0x0001E000)  returns 0x00 (0000ms, 0728ms total)
T27D4 000:946 JLINK_WriteReg(R1, 0x00001000)  returns 0x00 (0000ms, 0728ms total)
T27D4 000:946 JLINK_WriteReg(R2, 0x000000FF)  returns 0x00 (0000ms, 0728ms total)
T27D4 000:946 JLINK_WriteReg(R3, 0x00000000)  returns 0x00 (0000ms, 0728ms total)
T27D4 000:946 JLINK_WriteReg(R4, 0x00000000)  returns 0x00 (0000ms, 0728ms total)
T27D4 000:946 JLINK_WriteReg(R5, 0x00000000)  returns 0x00 (0000ms, 0728ms total)
T27D4 000:946 JLINK_WriteReg(R6, 0x00000000)  returns 0x00 (0000ms, 0728ms total)
T27D4 000:946 JLINK_WriteReg(R7, 0x00000000)  returns 0x00 (0000ms, 0728ms total)
T27D4 000:946 JLINK_WriteReg(R8, 0x00000000)  returns 0x00 (0000ms, 0728ms total)
T27D4 000:946 JLINK_WriteReg(R9, 0x200001F0)  returns 0x00 (0000ms, 0728ms total)
T27D4 000:946 JLINK_WriteReg(R10, 0x00000000)  returns 0x00 (0000ms, 0728ms total)
T27D4 000:946 JLINK_WriteReg(R11, 0x00000000)  returns 0x00 (0000ms, 0728ms total)
T27D4 000:946 JLINK_WriteReg(R12, 0x00000000)  returns 0x00 (0000ms, 0728ms total)
T27D4 000:946 JLINK_WriteReg(R13 (SP), 0x20002000)  returns 0x00 (0000ms, 0728ms total)
T27D4 000:946 JLINK_WriteReg(R14, 0x20000001)  returns 0x00 (0000ms, 0728ms total)
T27D4 000:946 JLINK_WriteReg(R15 (PC), 0x200000A2)  returns 0x00 (0000ms, 0728ms total)
T27D4 000:946 JLINK_WriteReg(XPSR, 0x01000000)  returns 0x00 (0000ms, 0728ms total)
T27D4 000:946 JLINK_WriteReg(MSP, 0x20002000)  returns 0x00 (0000ms, 0728ms total)
T27D4 000:946 JLINK_WriteReg(PSP, 0x20002000)  returns 0x00 (0000ms, 0728ms total)
T27D4 000:946 JLINK_WriteReg(CFBP, 0x00000000)  returns 0x00 (0001ms, 0729ms total)
T27D4 000:947 JLINK_SetBPEx(Addr = 0x20000000, Type = 0xFFFFFFF2)  returns 0x00000007 (0000ms, 0729ms total)
T27D4 000:947 JLINK_Go() -- CPU_ReadMem(4 bytes @ 0xE0001000) (0003ms, 0732ms total)
T27D4 000:950 JLINK_IsHalted()  returns FALSE (0001ms, 0733ms total)
T27D4 000:953 JLINK_IsHalted() -- CPU_ReadMem(2 bytes @ 0x20000000)  returns TRUE (0007ms, 0739ms total)
T27D4 000:961 JLINK_ReadReg(R15 (PC))  returns 0x20000000 (0000ms, 0732ms total)
T27D4 000:961 JLINK_ClrBPEx(BPHandle = 0x00000007)  returns 0x00 (0000ms, 0732ms total)
T27D4 000:961 JLINK_ReadReg(R0)  returns 0x00000000 (0000ms, 0732ms total)
T27D4 000:961 JLINK_WriteReg(R0, 0x0001F000)  returns 0x00 (0000ms, 0732ms total)
T27D4 000:961 JLINK_WriteReg(R1, 0x00001000)  returns 0x00 (0001ms, 0733ms total)
T27D4 000:962 JLINK_WriteReg(R2, 0x000000FF)  returns 0x00 (0000ms, 0733ms total)
T27D4 000:962 JLINK_WriteReg(R3, 0x00000000)  returns 0x00 (0000ms, 0733ms total)
T27D4 000:962 JLINK_WriteReg(R4, 0x00000000)  returns 0x00 (0000ms, 0733ms total)
T27D4 000:962 JLINK_WriteReg(R5, 0x00000000)  returns 0x00 (0000ms, 0733ms total)
T27D4 000:962 JLINK_WriteReg(R6, 0x00000000)  returns 0x00 (0000ms, 0733ms total)
T27D4 000:962 JLINK_WriteReg(R7, 0x00000000)  returns 0x00 (0000ms, 0733ms total)
T27D4 000:962 JLINK_WriteReg(R8, 0x00000000)  returns 0x00 (0000ms, 0733ms total)
T27D4 000:962 JLINK_WriteReg(R9, 0x200001F0)  returns 0x00 (0000ms, 0733ms total)
T27D4 000:962 JLINK_WriteReg(R10, 0x00000000)  returns 0x00 (0000ms, 0733ms total)
T27D4 000:962 JLINK_WriteReg(R11, 0x00000000)  returns 0x00 (0000ms, 0733ms total)
T27D4 000:962 JLINK_WriteReg(R12, 0x00000000)  returns 0x00 (0000ms, 0733ms total)
T27D4 000:962 JLINK_WriteReg(R13 (SP), 0x20002000)  returns 0x00 (0000ms, 0733ms total)
T27D4 000:962 JLINK_WriteReg(R14, 0x20000001)  returns 0x00 (0000ms, 0733ms total)
T27D4 000:962 JLINK_WriteReg(R15 (PC), 0x200000E4)  returns 0x00 (0000ms, 0733ms total)
T27D4 000:962 JLINK_WriteReg(XPSR, 0x01000000)  returns 0x00 (0000ms, 0733ms total)
T27D4 000:962 JLINK_WriteReg(MSP, 0x20002000)  returns 0x00 (0000ms, 0733ms total)
T27D4 000:962 JLINK_WriteReg(PSP, 0x20002000)  returns 0x00 (0000ms, 0733ms total)
T27D4 000:962 JLINK_WriteReg(CFBP, 0x00000000)  returns 0x00 (0000ms, 0733ms total)
T27D4 000:962 JLINK_SetBPEx(Addr = 0x20000000, Type = 0xFFFFFFF2)  returns 0x00000008 (0000ms, 0733ms total)
T27D4 000:962 JLINK_Go() -- CPU_ReadMem(4 bytes @ 0xE0001000) (0006ms, 0739ms total)
T27D4 000:968 JLINK_IsHalted() -- CPU_ReadMem(2 bytes @ 0x20000000)  returns TRUE (0008ms, 0747ms total)
T27D4 000:976 JLINK_ReadReg(R15 (PC))  returns 0x20000000 (0000ms, 0739ms total)
T27D4 000:976 JLINK_ClrBPEx(BPHandle = 0x00000008)  returns 0x00 (0000ms, 0739ms total)
T27D4 000:976 JLINK_ReadReg(R0)  returns 0x00000001 (0000ms, 0739ms total)
T27D4 000:976 JLINK_WriteReg(R0, 0x0001F000)  returns 0x00 (0000ms, 0739ms total)
T27D4 000:976 JLINK_WriteReg(R1, 0x00001000)  returns 0x00 (0000ms, 0739ms total)
T27D4 000:976 JLINK_WriteReg(R2, 0x000000FF)  returns 0x00 (0000ms, 0739ms total)
T27D4 000:976 JLINK_WriteReg(R3, 0x00000000)  returns 0x00 (0000ms, 0739ms total)
T27D4 000:976 JLINK_WriteReg(R4, 0x00000000)  returns 0x00 (0000ms, 0739ms total)
T27D4 000:976 JLINK_WriteReg(R5, 0x00000000)  returns 0x00 (0000ms, 0739ms total)
T27D4 000:976 JLINK_WriteReg(R6, 0x00000000)  returns 0x00 (0000ms, 0739ms total)
T27D4 000:977 JLINK_WriteReg(R7, 0x00000000)  returns 0x00 (0000ms, 0739ms total)
T27D4 000:977 JLINK_WriteReg(R8, 0x00000000)  returns 0x00 (0000ms, 0739ms total)
T27D4 000:977 JLINK_WriteReg(R9, 0x200001F0)  returns 0x00 (0000ms, 0739ms total)
T27D4 000:977 JLINK_WriteReg(R10, 0x00000000)  returns 0x00 (0000ms, 0739ms total)
T27D4 000:977 JLINK_WriteReg(R11, 0x00000000)  returns 0x00 (0000ms, 0739ms total)
T27D4 000:977 JLINK_WriteReg(R12, 0x00000000)  returns 0x00 (0000ms, 0739ms total)
T27D4 000:977 JLINK_WriteReg(R13 (SP), 0x20002000)  returns 0x00 (0000ms, 0739ms total)
T27D4 000:977 JLINK_WriteReg(R14, 0x20000001)  returns 0x00 (0000ms, 0739ms total)
T27D4 000:977 JLINK_WriteReg(R15 (PC), 0x200000A2)  returns 0x00 (0000ms, 0739ms total)
T27D4 000:977 JLINK_WriteReg(XPSR, 0x01000000)  returns 0x00 (0000ms, 0739ms total)
T27D4 000:977 JLINK_WriteReg(MSP, 0x20002000)  returns 0x00 (0000ms, 0739ms total)
T27D4 000:977 JLINK_WriteReg(PSP, 0x20002000)  returns 0x00 (0000ms, 0739ms total)
T27D4 000:977 JLINK_WriteReg(CFBP, 0x00000000)  returns 0x00 (0000ms, 0739ms total)
T27D4 000:977 JLINK_SetBPEx(Addr = 0x20000000, Type = 0xFFFFFFF2)  returns 0x00000009 (0000ms, 0739ms total)
T27D4 000:977 JLINK_Go() -- CPU_ReadMem(4 bytes @ 0xE0001000) (0004ms, 0743ms total)
T27D4 000:981 JLINK_IsHalted()  returns FALSE (0001ms, 0744ms total)
T27D4 001:005 JLINK_IsHalted() -- CPU_ReadMem(2 bytes @ 0x20000000)  returns TRUE (0009ms, 0752ms total)
T27D4 001:014 JLINK_ReadReg(R15 (PC))  returns 0x20000000 (0000ms, 0743ms total)
T27D4 001:014 JLINK_ClrBPEx(BPHandle = 0x00000009)  returns 0x00 (0000ms, 0743ms total)
T27D4 001:014 JLINK_ReadReg(R0)  returns 0x00000000 (0000ms, 0743ms total)
T27D4 001:015 JLINK_WriteReg(R0, 0x00020000)  returns 0x00 (0000ms, 0743ms total)
T27D4 001:015 JLINK_WriteReg(R1, 0x00001000)  returns 0x00 (0000ms, 0743ms total)
T27D4 001:015 JLINK_WriteReg(R2, 0x000000FF)  returns 0x00 (0000ms, 0743ms total)
T27D4 001:015 JLINK_WriteReg(R3, 0x00000000)  returns 0x00 (0000ms, 0743ms total)
T27D4 001:015 JLINK_WriteReg(R4, 0x00000000)  returns 0x00 (0000ms, 0743ms total)
T27D4 001:015 JLINK_WriteReg(R5, 0x00000000)  returns 0x00 (0000ms, 0743ms total)
T27D4 001:015 JLINK_WriteReg(R6, 0x00000000)  returns 0x00 (0000ms, 0743ms total)
T27D4 001:015 JLINK_WriteReg(R7, 0x00000000)  returns 0x00 (0000ms, 0743ms total)
T27D4 001:015 JLINK_WriteReg(R8, 0x00000000)  returns 0x00 (0000ms, 0743ms total)
T27D4 001:015 JLINK_WriteReg(R9, 0x200001F0)  returns 0x00 (0000ms, 0743ms total)
T27D4 001:015 JLINK_WriteReg(R10, 0x00000000)  returns 0x00 (0000ms, 0743ms total)
T27D4 001:015 JLINK_WriteReg(R11, 0x00000000)  returns 0x00 (0000ms, 0743ms total)
T27D4 001:015 JLINK_WriteReg(R12, 0x00000000)  returns 0x00 (0000ms, 0743ms total)
T27D4 001:015 JLINK_WriteReg(R13 (SP), 0x20002000)  returns 0x00 (0000ms, 0743ms total)
T27D4 001:015 JLINK_WriteReg(R14, 0x20000001)  returns 0x00 (0001ms, 0744ms total)
T27D4 001:016 JLINK_WriteReg(R15 (PC), 0x200000E4)  returns 0x00 (0000ms, 0744ms total)
T27D4 001:016 JLINK_WriteReg(XPSR, 0x01000000)  returns 0x00 (0000ms, 0744ms total)
T27D4 001:016 JLINK_WriteReg(MSP, 0x20002000)  returns 0x00 (0000ms, 0744ms total)
T27D4 001:016 JLINK_WriteReg(PSP, 0x20002000)  returns 0x00 (0000ms, 0744ms total)
T27D4 001:016 JLINK_WriteReg(CFBP, 0x00000000)  returns 0x00 (0000ms, 0744ms total)
T27D4 001:016 JLINK_SetBPEx(Addr = 0x20000000, Type = 0xFFFFFFF2)  returns 0x0000000A (0000ms, 0744ms total)
T27D4 001:016 JLINK_Go() -- CPU_ReadMem(4 bytes @ 0xE0001000) (0005ms, 0749ms total)
T27D4 001:021 JLINK_IsHalted() -- CPU_ReadMem(2 bytes @ 0x20000000)  returns TRUE (0010ms, 0759ms total)
T27D4 001:031 JLINK_ReadReg(R15 (PC))  returns 0x20000000 (0000ms, 0749ms total)
T27D4 001:031 JLINK_ClrBPEx(BPHandle = 0x0000000A)  returns 0x00 (0000ms, 0749ms total)
T27D4 001:031 JLINK_ReadReg(R0)  returns 0x00000001 (0000ms, 0749ms total)
T27D4 001:031 JLINK_WriteReg(R0, 0x00020000)  returns 0x00 (0000ms, 0749ms total)
T27D4 001:031 JLINK_WriteReg(R1, 0x00001000)  returns 0x00 (0000ms, 0749ms total)
T27D4 001:031 JLINK_WriteReg(R2, 0x000000FF)  returns 0x00 (0000ms, 0749ms total)
T27D4 001:031 JLINK_WriteReg(R3, 0x00000000)  returns 0x00 (0000ms, 0749ms total)
T27D4 001:031 JLINK_WriteReg(R4, 0x00000000)  returns 0x00 (0000ms, 0749ms total)
T27D4 001:031 JLINK_WriteReg(R5, 0x00000000)  returns 0x00 (0000ms, 0749ms total)
T27D4 001:031 JLINK_WriteReg(R6, 0x00000000)  returns 0x00 (0000ms, 0749ms total)
T27D4 001:031 JLINK_WriteReg(R7, 0x00000000)  returns 0x00 (0000ms, 0749ms total)
T27D4 001:031 JLINK_WriteReg(R8, 0x00000000)  returns 0x00 (0000ms, 0749ms total)
T27D4 001:031 JLINK_WriteReg(R9, 0x200001F0)  returns 0x00 (0000ms, 0749ms total)
T27D4 001:031 JLINK_WriteReg(R10, 0x00000000)  returns 0x00 (0000ms, 0749ms total)
T27D4 001:031 JLINK_WriteReg(R11, 0x00000000)  returns 0x00 (0000ms, 0749ms total)
T27D4 001:031 JLINK_WriteReg(R12, 0x00000000)  returns 0x00 (0000ms, 0749ms total)
T27D4 001:031 JLINK_WriteReg(R13 (SP), 0x20002000)  returns 0x00 (0000ms, 0749ms total)
T27D4 001:031 JLINK_WriteReg(R14, 0x20000001)  returns 0x00 (0000ms, 0749ms total)
T27D4 001:032 JLINK_WriteReg(R15 (PC), 0x200000A2)  returns 0x00 (0000ms, 0749ms total)
T27D4 001:032 JLINK_WriteReg(XPSR, 0x01000000)  returns 0x00 (0000ms, 0749ms total)
T27D4 001:032 JLINK_WriteReg(MSP, 0x20002000)  returns 0x00 (0000ms, 0749ms total)
T27D4 001:032 JLINK_WriteReg(PSP, 0x20002000)  returns 0x00 (0000ms, 0749ms total)
T27D4 001:032 JLINK_WriteReg(CFBP, 0x00000000)  returns 0x00 (0000ms, 0749ms total)
T27D4 001:032 JLINK_SetBPEx(Addr = 0x20000000, Type = 0xFFFFFFF2)  returns 0x0000000B (0000ms, 0749ms total)
T27D4 001:032 JLINK_Go() -- CPU_ReadMem(4 bytes @ 0xE0001000) (0005ms, 0754ms total)
T27D4 001:037 JLINK_IsHalted()  returns FALSE (0001ms, 0755ms total)
T27D4 001:039 JLINK_IsHalted() -- CPU_ReadMem(2 bytes @ 0x20000000)  returns TRUE (0009ms, 0763ms total)
T27D4 001:048 JLINK_ReadReg(R15 (PC))  returns 0x20000000 (0000ms, 0754ms total)
T27D4 001:048 JLINK_ClrBPEx(BPHandle = 0x0000000B)  returns 0x00 (0000ms, 0754ms total)
T27D4 001:048 JLINK_ReadReg(R0)  returns 0x00000000 (0001ms, 0755ms total)
T27D4 001:049 JLINK_WriteReg(R0, 0x00000001)  returns 0x00 (0000ms, 0755ms total)
T27D4 001:049 JLINK_WriteReg(R1, 0x00001000)  returns 0x00 (0001ms, 0756ms total)
T27D4 001:050 JLINK_WriteReg(R2, 0x000000FF)  returns 0x00 (0000ms, 0756ms total)
T27D4 001:050 JLINK_WriteReg(R3, 0x00000000)  returns 0x00 (0000ms, 0756ms total)
T27D4 001:050 JLINK_WriteReg(R4, 0x00000000)  returns 0x00 (0000ms, 0756ms total)
T27D4 001:050 JLINK_WriteReg(R5, 0x00000000)  returns 0x00 (0000ms, 0756ms total)
T27D4 001:050 JLINK_WriteReg(R6, 0x00000000)  returns 0x00 (0000ms, 0756ms total)
T27D4 001:050 JLINK_WriteReg(R7, 0x00000000)  returns 0x00 (0000ms, 0756ms total)
T27D4 001:050 JLINK_WriteReg(R8, 0x00000000)  returns 0x00 (0000ms, 0756ms total)
T27D4 001:050 JLINK_WriteReg(R9, 0x200001F0)  returns 0x00 (0000ms, 0756ms total)
T27D4 001:050 JLINK_WriteReg(R10, 0x00000000)  returns 0x00 (0000ms, 0756ms total)
T27D4 001:050 JLINK_WriteReg(R11, 0x00000000)  returns 0x00 (0000ms, 0756ms total)
T27D4 001:050 JLINK_WriteReg(R12, 0x00000000)  returns 0x00 (0000ms, 0756ms total)
T27D4 001:050 JLINK_WriteReg(R13 (SP), 0x20002000)  returns 0x00 (0001ms, 0757ms total)
T27D4 001:051 JLINK_WriteReg(R14, 0x20000001)  returns 0x00 (0000ms, 0757ms total)
T27D4 001:051 JLINK_WriteReg(R15 (PC), 0x20000058)  returns 0x00 (0000ms, 0757ms total)
T27D4 001:051 JLINK_WriteReg(XPSR, 0x01000000)  returns 0x00 (0000ms, 0757ms total)
T27D4 001:051 JLINK_WriteReg(MSP, 0x20002000)  returns 0x00 (0000ms, 0757ms total)
T27D4 001:051 JLINK_WriteReg(PSP, 0x20002000)  returns 0x00 (0000ms, 0757ms total)
T27D4 001:051 JLINK_WriteReg(CFBP, 0x00000000)  returns 0x00 (0000ms, 0757ms total)
T27D4 001:051 JLINK_SetBPEx(Addr = 0x20000000, Type = 0xFFFFFFF2)  returns 0x0000000C (0000ms, 0757ms total)
T27D4 001:051 JLINK_Go() -- CPU_ReadMem(4 bytes @ 0xE0001000) (0006ms, 0763ms total)
T27D4 001:057 JLINK_IsHalted() -- CPU_ReadMem(2 bytes @ 0x20000000)  returns TRUE (0009ms, 0772ms total)
T27D4 001:066 JLINK_ReadReg(R15 (PC))  returns 0x20000000 (0000ms, 0763ms total)
T27D4 001:066 JLINK_ClrBPEx(BPHandle = 0x0000000C)  returns 0x00 (0000ms, 0763ms total)
T27D4 001:066 JLINK_ReadReg(R0)  returns 0x00000000 (0001ms, 0764ms total)
T27D4 001:131 JLINK_WriteMem(0x20000000, 0x01F4 Bytes, ...) - Data: 00 BE 0A E0 0D 78 2D 06 68 40 08 24 40 00 00 D3 ... -- CPU_WriteMem(500 bytes @ 0x20000000)  returns 0x1F4 (0008ms, 0772ms total)
T27D4 001:139 JLINK_WriteReg(R0, 0x00000000)  returns 0x00 (0000ms, 0772ms total)
T27D4 001:139 JLINK_WriteReg(R1, 0x03D09000)  returns 0x00 (0000ms, 0772ms total)
T27D4 001:139 JLINK_WriteReg(R2, 0x00000002)  returns 0x00 (0000ms, 0772ms total)
T27D4 001:139 JLINK_WriteReg(R3, 0x00000000)  returns 0x00 (0000ms, 0772ms total)
T27D4 001:139 JLINK_WriteReg(R4, 0x00000000)  returns 0x00 (0000ms, 0772ms total)
T27D4 001:139 JLINK_WriteReg(R5, 0x00000000)  returns 0x00 (0000ms, 0772ms total)
T27D4 001:139 JLINK_WriteReg(R6, 0x00000000)  returns 0x00 (0000ms, 0772ms total)
T27D4 001:139 JLINK_WriteReg(R7, 0x00000000)  returns 0x00 (0001ms, 0773ms total)
T27D4 001:140 JLINK_WriteReg(R8, 0x00000000)  returns 0x00 (0000ms, 0773ms total)
T27D4 001:140 JLINK_WriteReg(R9, 0x200001F0)  returns 0x00 (0000ms, 0773ms total)
T27D4 001:140 JLINK_WriteReg(R10, 0x00000000)  returns 0x00 (0000ms, 0773ms total)
T27D4 001:140 JLINK_WriteReg(R11, 0x00000000)  returns 0x00 (0000ms, 0773ms total)
T27D4 001:140 JLINK_WriteReg(R12, 0x00000000)  returns 0x00 (0000ms, 0773ms total)
T27D4 001:140 JLINK_WriteReg(R13 (SP), 0x20002000)  returns 0x00 (0000ms, 0773ms total)
T27D4 001:140 JLINK_WriteReg(R14, 0x20000001)  returns 0x00 (0000ms, 0773ms total)
T27D4 001:140 JLINK_WriteReg(R15 (PC), 0x20000028)  returns 0x00 (0000ms, 0773ms total)
T27D4 001:140 JLINK_WriteReg(XPSR, 0x01000000)  returns 0x00 (0000ms, 0773ms total)
T27D4 001:140 JLINK_WriteReg(MSP, 0x20002000)  returns 0x00 (0000ms, 0773ms total)
T27D4 001:140 JLINK_WriteReg(PSP, 0x20002000)  returns 0x00 (0000ms, 0773ms total)
T27D4 001:140 JLINK_WriteReg(CFBP, 0x00000000)  returns 0x00 (0001ms, 0774ms total)
T27D4 001:141 JLINK_SetBPEx(Addr = 0x20000000, Type = 0xFFFFFFF2) -- CPU_ReadMem(2 bytes @ 0x20000000)  returns 0x0000000D (0001ms, 0775ms total)
T27D4 001:142 JLINK_Go() -- CPU_WriteMem(2 bytes @ 0x20000000) -- CPU_ReadMem(4 bytes @ 0xE0001000) (0007ms, 0782ms total)
T27D4 001:149 JLINK_IsHalted() -- CPU_ReadMem(2 bytes @ 0x20000000)  returns TRUE (0010ms, 0792ms total)
T27D4 001:159 JLINK_ReadReg(R15 (PC))  returns 0x20000000 (0000ms, 0782ms total)
T27D4 001:159 JLINK_ClrBPEx(BPHandle = 0x0000000D)  returns 0x00 (0000ms, 0782ms total)
T27D4 001:159 JLINK_ReadReg(R0)  returns 0x00000000 (0000ms, 0782ms total)
T27D4 001:160 JLINK_WriteMem(0x200001F4, 0x0E0C Bytes, ...) - Data: 40 49 00 20 05 C5 01 00 0D C5 01 00 0F C5 01 00 ... -- CPU_WriteMem(3596 bytes @ 0x200001F4)  returns 0xE0C (0050ms, 0832ms total)
T27D4 001:210 JLINK_WriteMem(0x20001000, 0x01F4 Bytes, ...) - Data: 05 21 11 60 56 49 78 31 0C 60 55 49 08 31 0B 60 ... -- CPU_WriteMem(500 bytes @ 0x20001000)  returns 0x1F4 (0008ms, 0840ms total)
T27D4 001:218 JLINK_WriteReg(R0, 0x0001C000)  returns 0x00 (0000ms, 0840ms total)
T27D4 001:218 JLINK_WriteReg(R1, 0x00001000)  returns 0x00 (0000ms, 0840ms total)
T27D4 001:218 JLINK_WriteReg(R2, 0x200001F4)  returns 0x00 (0000ms, 0840ms total)
T27D4 001:218 JLINK_WriteReg(R3, 0x00000000)  returns 0x00 (0000ms, 0840ms total)
T27D4 001:218 JLINK_WriteReg(R4, 0x00000000)  returns 0x00 (0000ms, 0840ms total)
T27D4 001:218 JLINK_WriteReg(R5, 0x00000000)  returns 0x00 (0000ms, 0840ms total)
T27D4 001:218 JLINK_WriteReg(R6, 0x00000000)  returns 0x00 (0000ms, 0840ms total)
T27D4 001:218 JLINK_WriteReg(R7, 0x00000000)  returns 0x00 (0000ms, 0840ms total)
T27D4 001:218 JLINK_WriteReg(R8, 0x00000000)  returns 0x00 (0000ms, 0840ms total)
T27D4 001:218 JLINK_WriteReg(R9, 0x200001F0)  returns 0x00 (0000ms, 0840ms total)
T27D4 001:218 JLINK_WriteReg(R10, 0x00000000)  returns 0x00 (0000ms, 0840ms total)
T27D4 001:218 JLINK_WriteReg(R11, 0x00000000)  returns 0x00 (0000ms, 0840ms total)
T27D4 001:218 JLINK_WriteReg(R12, 0x00000000)  returns 0x00 (0000ms, 0840ms total)
T27D4 001:218 JLINK_WriteReg(R13 (SP), 0x20002000)  returns 0x00 (0000ms, 0840ms total)
T27D4 001:218 JLINK_WriteReg(R14, 0x20000001)  returns 0x00 (0000ms, 0840ms total)
T27D4 001:218 JLINK_WriteReg(R15 (PC), 0x20000120)  returns 0x00 (0000ms, 0840ms total)
T27D4 001:218 JLINK_WriteReg(XPSR, 0x01000000)  returns 0x00 (0000ms, 0840ms total)
T27D4 001:218 JLINK_WriteReg(MSP, 0x20002000)  returns 0x00 (0000ms, 0840ms total)
T27D4 001:219 JLINK_WriteReg(PSP, 0x20002000)  returns 0x00 (0000ms, 0841ms total)
T27D4 001:219 JLINK_WriteReg(CFBP, 0x00000000)  returns 0x00 (0000ms, 0841ms total)
T27D4 001:219 JLINK_SetBPEx(Addr = 0x20000000, Type = 0xFFFFFFF2)  returns 0x0000000E (0000ms, 0841ms total)
T27D4 001:219 JLINK_Go() -- CPU_ReadMem(4 bytes @ 0xE0001000) (0005ms, 0846ms total)
T27D4 001:224 JLINK_IsHalted()  returns FALSE (0002ms, 0848ms total)
T27D4 001:256 JLINK_IsHalted()  returns FALSE (0001ms, 0847ms total)
T27D4 001:258 JLINK_IsHalted()  returns FALSE (0001ms, 0847ms total)
T27D4 001:260 JLINK_IsHalted()  returns FALSE (0001ms, 0847ms total)
T27D4 001:262 JLINK_IsHalted()  returns FALSE (0001ms, 0847ms total)
T27D4 001:264 JLINK_IsHalted()  returns FALSE (0001ms, 0847ms total)
T27D4 001:267 JLINK_IsHalted()  returns FALSE (0001ms, 0847ms total)
T27D4 001:269 JLINK_IsHalted()  returns FALSE (0001ms, 0847ms total)
T27D4 001:271 JLINK_IsHalted()  returns FALSE (0001ms, 0847ms total)
T27D4 001:273 JLINK_IsHalted()  returns FALSE (0001ms, 0847ms total)
T27D4 001:275 JLINK_IsHalted()  returns FALSE (0001ms, 0847ms total)
T27D4 001:277 JLINK_IsHalted()  returns FALSE (0001ms, 0847ms total)
T27D4 001:279 JLINK_IsHalted()  returns FALSE (0001ms, 0847ms total)
T27D4 001:281 JLINK_IsHalted()  returns FALSE (0001ms, 0847ms total)
T27D4 001:283 JLINK_IsHalted()  returns FALSE (0001ms, 0847ms total)
T27D4 001:285 JLINK_IsHalted()  returns FALSE (0001ms, 0847ms total)
T27D4 001:287 JLINK_IsHalted()  returns FALSE (0001ms, 0847ms total)
T27D4 001:289 JLINK_IsHalted()  returns FALSE (0001ms, 0847ms total)
T27D4 001:291 JLINK_IsHalted()  returns FALSE (0001ms, 0847ms total)
T27D4 001:293 JLINK_IsHalted() -- CPU_ReadMem(2 bytes @ 0x20000000)  returns TRUE (0008ms, 0854ms total)
T27D4 001:301 JLINK_ReadReg(R15 (PC))  returns 0x20000000 (0001ms, 0847ms total)
T27D4 001:302 JLINK_ClrBPEx(BPHandle = 0x0000000E)  returns 0x00 (0000ms, 0847ms total)
T27D4 001:302 JLINK_ReadReg(R0)  returns 0x00000000 (0000ms, 0847ms total)
T27D4 001:302 JLINK_WriteMem(0x200001F4, 0x0E0C Bytes, ...) - Data: 01 28 20 D0 A5 EB 0B 00 40 1C 5F EA 00 0A 4F F0 ... -- CPU_WriteMem(3596 bytes @ 0x200001F4)  returns 0xE0C (0050ms, 0897ms total)
T27D4 001:352 JLINK_WriteMem(0x20001000, 0x01F4 Bytes, ...) - Data: 0D 49 68 46 01 F0 E2 FC 00 28 04 D1 9D F8 1D 00 ... -- CPU_WriteMem(500 bytes @ 0x20001000)  returns 0x1F4 (0008ms, 0905ms total)
T27D4 001:360 JLINK_WriteReg(R0, 0x0001D000)  returns 0x00 (0000ms, 0905ms total)
T27D4 001:360 JLINK_WriteReg(R1, 0x00001000)  returns 0x00 (0000ms, 0905ms total)
T27D4 001:360 JLINK_WriteReg(R2, 0x200001F4)  returns 0x00 (0000ms, 0905ms total)
T27D4 001:360 JLINK_WriteReg(R3, 0x00000000)  returns 0x00 (0000ms, 0905ms total)
T27D4 001:360 JLINK_WriteReg(R4, 0x00000000)  returns 0x00 (0000ms, 0905ms total)
T27D4 001:360 JLINK_WriteReg(R5, 0x00000000)  returns 0x00 (0000ms, 0905ms total)
T27D4 001:360 JLINK_WriteReg(R6, 0x00000000)  returns 0x00 (0000ms, 0905ms total)
T27D4 001:360 JLINK_WriteReg(R7, 0x00000000)  returns 0x00 (0000ms, 0905ms total)
T27D4 001:360 JLINK_WriteReg(R8, 0x00000000)  returns 0x00 (0001ms, 0906ms total)
T27D4 001:361 JLINK_WriteReg(R9, 0x200001F0)  returns 0x00 (0000ms, 0906ms total)
T27D4 001:361 JLINK_WriteReg(R10, 0x00000000)  returns 0x00 (0000ms, 0906ms total)
T27D4 001:361 JLINK_WriteReg(R11, 0x00000000)  returns 0x00 (0000ms, 0906ms total)
T27D4 001:361 JLINK_WriteReg(R12, 0x00000000)  returns 0x00 (0000ms, 0906ms total)
T27D4 001:361 JLINK_WriteReg(R13 (SP), 0x20002000)  returns 0x00 (0000ms, 0906ms total)
T27D4 001:361 JLINK_WriteReg(R14, 0x20000001)  returns 0x00 (0000ms, 0906ms total)
T27D4 001:361 JLINK_WriteReg(R15 (PC), 0x20000120)  returns 0x00 (0000ms, 0906ms total)
T27D4 001:361 JLINK_WriteReg(XPSR, 0x01000000)  returns 0x00 (0000ms, 0906ms total)
T27D4 001:361 JLINK_WriteReg(MSP, 0x20002000)  returns 0x00 (0000ms, 0906ms total)
T27D4 001:361 JLINK_WriteReg(PSP, 0x20002000)  returns 0x00 (0000ms, 0906ms total)
T27D4 001:361 JLINK_WriteReg(CFBP, 0x00000000)  returns 0x00 (0000ms, 0906ms total)
T27D4 001:361 JLINK_SetBPEx(Addr = 0x20000000, Type = 0xFFFFFFF2)  returns 0x0000000F (0000ms, 0906ms total)
T27D4 001:361 JLINK_Go() -- CPU_ReadMem(4 bytes @ 0xE0001000) (0006ms, 0912ms total)
T27D4 001:367 JLINK_IsHalted()  returns FALSE (0001ms, 0913ms total)
T27D4 001:401 JLINK_IsHalted()  returns FALSE (0001ms, 0913ms total)
T27D4 001:403 JLINK_IsHalted()  returns FALSE (0001ms, 0913ms total)
T27D4 001:405 JLINK_IsHalted()  returns FALSE (0001ms, 0913ms total)
T27D4 001:416 JLINK_IsHalted()  returns FALSE (0001ms, 0913ms total)
T27D4 001:418 JLINK_IsHalted()  returns FALSE (0000ms, 0912ms total)
T27D4 001:421 JLINK_IsHalted()  returns FALSE (0000ms, 0912ms total)
T27D4 001:422 JLINK_IsHalted()  returns FALSE (0000ms, 0912ms total)
T27D4 001:423 JLINK_IsHalted()  returns FALSE (0001ms, 0913ms total)
T27D4 001:425 JLINK_IsHalted()  returns FALSE (0001ms, 0913ms total)
T27D4 001:427 JLINK_IsHalted()  returns FALSE (0001ms, 0913ms total)
T27D4 001:429 JLINK_IsHalted()  returns FALSE (0001ms, 0913ms total)
T27D4 001:431 JLINK_IsHalted()  returns FALSE (0001ms, 0913ms total)
T27D4 001:433 JLINK_IsHalted()  returns FALSE (0000ms, 0912ms total)
T27D4 001:434 JLINK_IsHalted()  returns FALSE (0001ms, 0913ms total)
T27D4 001:436 JLINK_IsHalted() -- CPU_ReadMem(2 bytes @ 0x20000000)  returns TRUE (0008ms, 0920ms total)
T27D4 001:444 JLINK_ReadReg(R15 (PC))  returns 0x20000000 (0000ms, 0912ms total)
T27D4 001:444 JLINK_ClrBPEx(BPHandle = 0x0000000F)  returns 0x00 (0000ms, 0912ms total)
T27D4 001:444 JLINK_ReadReg(R0)  returns 0x00000000 (0000ms, 0912ms total)
T27D4 001:444 JLINK_WriteMem(0x200001F4, 0x0E0C Bytes, ...) - Data: D9 B1 1C 4A AC 32 A2 F1 0C 01 8A 60 81 62 A3 6A ... -- CPU_WriteMem(3596 bytes @ 0x200001F4)  returns 0xE0C (0049ms, 0961ms total)
T27D4 001:493 JLINK_WriteMem(0x20001000, 0x01F4 Bytes, ...) - Data: 2F 20 FD F7 3D FB 00 E0 04 E0 BD E8 F0 5F 11 20 ... -- CPU_WriteMem(500 bytes @ 0x20001000)  returns 0x1F4 (0008ms, 0969ms total)
T27D4 001:501 JLINK_WriteReg(R0, 0x0001E000)  returns 0x00 (0000ms, 0969ms total)
T27D4 001:501 JLINK_WriteReg(R1, 0x00001000)  returns 0x00 (0000ms, 0969ms total)
T27D4 001:502 JLINK_WriteReg(R2, 0x200001F4)  returns 0x00 (0000ms, 0970ms total)
T27D4 001:502 JLINK_WriteReg(R3, 0x00000000)  returns 0x00 (0000ms, 0970ms total)
T27D4 001:502 JLINK_WriteReg(R4, 0x00000000)  returns 0x00 (0000ms, 0970ms total)
T27D4 001:502 JLINK_WriteReg(R5, 0x00000000)  returns 0x00 (0000ms, 0970ms total)
T27D4 001:502 JLINK_WriteReg(R6, 0x00000000)  returns 0x00 (0000ms, 0970ms total)
T27D4 001:502 JLINK_WriteReg(R7, 0x00000000)  returns 0x00 (0000ms, 0970ms total)
T27D4 001:502 JLINK_WriteReg(R8, 0x00000000)  returns 0x00 (0000ms, 0970ms total)
T27D4 001:502 JLINK_WriteReg(R9, 0x200001F0)  returns 0x00 (0000ms, 0970ms total)
T27D4 001:502 JLINK_WriteReg(R10, 0x00000000)  returns 0x00 (0000ms, 0970ms total)
T27D4 001:502 JLINK_WriteReg(R11, 0x00000000)  returns 0x00 (0000ms, 0970ms total)
T27D4 001:502 JLINK_WriteReg(R12, 0x00000000)  returns 0x00 (0000ms, 0970ms total)
T27D4 001:502 JLINK_WriteReg(R13 (SP), 0x20002000)  returns 0x00 (0000ms, 0970ms total)
T27D4 001:502 JLINK_WriteReg(R14, 0x20000001)  returns 0x00 (0000ms, 0970ms total)
T27D4 001:502 JLINK_WriteReg(R15 (PC), 0x20000120)  returns 0x00 (0001ms, 0971ms total)
T27D4 001:503 JLINK_WriteReg(XPSR, 0x01000000)  returns 0x00 (0000ms, 0971ms total)
T27D4 001:503 JLINK_WriteReg(MSP, 0x20002000)  returns 0x00 (0000ms, 0971ms total)
T27D4 001:503 JLINK_WriteReg(PSP, 0x20002000)  returns 0x00 (0000ms, 0971ms total)
T27D4 001:503 JLINK_WriteReg(CFBP, 0x00000000)  returns 0x00 (0000ms, 0971ms total)
T27D4 001:503 JLINK_SetBPEx(Addr = 0x20000000, Type = 0xFFFFFFF2)  returns 0x00000010 (0000ms, 0971ms total)
T27D4 001:503 JLINK_Go() -- CPU_ReadMem(4 bytes @ 0xE0001000) (0006ms, 0977ms total)
T27D4 001:509 JLINK_IsHalted()  returns FALSE (0001ms, 0978ms total)
T27D4 001:515 JLINK_IsHalted()  returns FALSE (0001ms, 0978ms total)
T27D4 001:539 JLINK_IsHalted()  returns FALSE (0001ms, 0978ms total)
T27D4 001:541 JLINK_IsHalted()  returns FALSE (0001ms, 0978ms total)
T27D4 001:543 JLINK_IsHalted()  returns FALSE (0001ms, 0978ms total)
T27D4 001:545 JLINK_IsHalted()  returns FALSE (0001ms, 0978ms total)
T27D4 001:547 JLINK_IsHalted()  returns FALSE (0001ms, 0978ms total)
T27D4 001:549 JLINK_IsHalted()  returns FALSE (0001ms, 0978ms total)
T27D4 001:551 JLINK_IsHalted()  returns FALSE (0001ms, 0978ms total)
T27D4 001:553 JLINK_IsHalted()  returns FALSE (0001ms, 0978ms total)
T27D4 001:555 JLINK_IsHalted()  returns FALSE (0001ms, 0978ms total)
T27D4 001:557 JLINK_IsHalted()  returns FALSE (0001ms, 0978ms total)
T27D4 001:559 JLINK_IsHalted()  returns FALSE (0001ms, 0978ms total)
T27D4 001:561 JLINK_IsHalted()  returns FALSE (0001ms, 0978ms total)
T27D4 001:563 JLINK_IsHalted()  returns FALSE (0001ms, 0978ms total)
T27D4 001:565 JLINK_IsHalted()  returns FALSE (0001ms, 0978ms total)
T27D4 001:567 JLINK_IsHalted()  returns FALSE (0001ms, 0978ms total)
T27D4 001:569 JLINK_IsHalted()  returns FALSE (0001ms, 0978ms total)
T27D4 001:571 JLINK_IsHalted()  returns FALSE (0001ms, 0978ms total)
T27D4 001:573 JLINK_IsHalted()  returns FALSE (0001ms, 0978ms total)
T27D4 001:577 JLINK_IsHalted()  returns FALSE (0001ms, 0978ms total)
T27D4 001:579 JLINK_IsHalted() -- CPU_ReadMem(2 bytes @ 0x20000000)  returns TRUE (0008ms, 0985ms total)
T27D4 001:587 JLINK_ReadReg(R15 (PC))  returns 0x20000000 (0000ms, 0977ms total)
T27D4 001:587 JLINK_ClrBPEx(BPHandle = 0x00000010)  returns 0x00 (0000ms, 0977ms total)
T27D4 001:587 JLINK_ReadReg(R0)  returns 0x00000000 (0000ms, 0977ms total)
T27D4 001:588 JLINK_WriteMem(0x200001F4, 0x0E0C Bytes, ...) - Data: 03 20 70 47 D8 28 00 20 2D E9 F0 41 12 4E 07 46 ... -- CPU_WriteMem(3596 bytes @ 0x200001F4)  returns 0xE0C (0049ms, 1026ms total)
T27D4 001:637 JLINK_WriteMem(0x20001000, 0x01F4 Bytes, ...) - Data: 01 20 20 70 07 20 FE F7 EF FD 08 B1 FD F7 B4 FE ... -- CPU_WriteMem(500 bytes @ 0x20001000)  returns 0x1F4 (0009ms, 1035ms total)
T27D4 001:647 JLINK_WriteReg(R0, 0x0001F000)  returns 0x00 (0000ms, 1035ms total)
T27D4 001:647 JLINK_WriteReg(R1, 0x00001000)  returns 0x00 (0000ms, 1035ms total)
T27D4 001:647 JLINK_WriteReg(R2, 0x200001F4)  returns 0x00 (0000ms, 1035ms total)
T27D4 001:647 JLINK_WriteReg(R3, 0x00000000)  returns 0x00 (0000ms, 1035ms total)
T27D4 001:647 JLINK_WriteReg(R4, 0x00000000)  returns 0x00 (0000ms, 1035ms total)
T27D4 001:647 JLINK_WriteReg(R5, 0x00000000)  returns 0x00 (0000ms, 1035ms total)
T27D4 001:647 JLINK_WriteReg(R6, 0x00000000)  returns 0x00 (0000ms, 1035ms total)
T27D4 001:647 JLINK_WriteReg(R7, 0x00000000)  returns 0x00 (0000ms, 1035ms total)
T27D4 001:647 JLINK_WriteReg(R8, 0x00000000)  returns 0x00 (0000ms, 1035ms total)
T27D4 001:647 JLINK_WriteReg(R9, 0x200001F0)  returns 0x00 (0000ms, 1035ms total)
T27D4 001:647 JLINK_WriteReg(R10, 0x00000000)  returns 0x00 (0000ms, 1035ms total)
T27D4 001:648 JLINK_WriteReg(R11, 0x00000000)  returns 0x00 (0000ms, 1035ms total)
T27D4 001:648 JLINK_WriteReg(R12, 0x00000000)  returns 0x00 (0000ms, 1035ms total)
T27D4 001:648 JLINK_WriteReg(R13 (SP), 0x20002000)  returns 0x00 (0000ms, 1035ms total)
T27D4 001:648 JLINK_WriteReg(R14, 0x20000001)  returns 0x00 (0000ms, 1035ms total)
T27D4 001:648 JLINK_WriteReg(R15 (PC), 0x20000120)  returns 0x00 (0000ms, 1035ms total)
T27D4 001:648 JLINK_WriteReg(XPSR, 0x01000000)  returns 0x00 (0000ms, 1035ms total)
T27D4 001:648 JLINK_WriteReg(MSP, 0x20002000)  returns 0x00 (0000ms, 1035ms total)
T27D4 001:648 JLINK_WriteReg(PSP, 0x20002000)  returns 0x00 (0000ms, 1035ms total)
T27D4 001:648 JLINK_WriteReg(CFBP, 0x00000000)  returns 0x00 (0000ms, 1035ms total)
T27D4 001:648 JLINK_SetBPEx(Addr = 0x20000000, Type = 0xFFFFFFF2)  returns 0x00000011 (0000ms, 1035ms total)
T27D4 001:648 JLINK_Go() -- CPU_ReadMem(4 bytes @ 0xE0001000) (0006ms, 1041ms total)
T27D4 001:654 JLINK_IsHalted()  returns FALSE (0002ms, 1043ms total)
T27D4 001:685 JLINK_IsHalted()  returns FALSE (0001ms, 1042ms total)
T27D4 001:687 JLINK_IsHalted()  returns FALSE (0001ms, 1042ms total)
T27D4 001:689 JLINK_IsHalted()  returns FALSE (0001ms, 1042ms total)
T27D4 001:691 JLINK_IsHalted()  returns FALSE (0001ms, 1042ms total)
T27D4 001:693 JLINK_IsHalted()  returns FALSE (0001ms, 1042ms total)
T27D4 001:695 JLINK_IsHalted()  returns FALSE (0001ms, 1042ms total)
T27D4 001:697 JLINK_IsHalted()  returns FALSE (0001ms, 1042ms total)
T27D4 001:699 JLINK_IsHalted()  returns FALSE (0001ms, 1042ms total)
T27D4 001:702 JLINK_IsHalted()  returns FALSE (0001ms, 1042ms total)
T27D4 001:704 JLINK_IsHalted()  returns FALSE (0001ms, 1042ms total)
T27D4 001:706 JLINK_IsHalted()  returns FALSE (0001ms, 1042ms total)
T27D4 001:708 JLINK_IsHalted()  returns FALSE (0001ms, 1042ms total)
T27D4 001:710 JLINK_IsHalted()  returns FALSE (0001ms, 1042ms total)
T27D4 001:712 JLINK_IsHalted()  returns FALSE (0001ms, 1042ms total)
T27D4 001:714 JLINK_IsHalted()  returns FALSE (0000ms, 1041ms total)
T27D4 001:716 JLINK_IsHalted()  returns FALSE (0000ms, 1041ms total)
T27D4 001:718 JLINK_IsHalted()  returns FALSE (0000ms, 1041ms total)
T27D4 001:719 JLINK_IsHalted()  returns FALSE (0000ms, 1041ms total)
T27D4 001:720 JLINK_IsHalted()  returns FALSE (0000ms, 1041ms total)
T27D4 001:721 JLINK_IsHalted()  returns FALSE (0000ms, 1041ms total)
T27D4 001:722 JLINK_IsHalted()  returns FALSE (0000ms, 1041ms total)
T27D4 001:723 JLINK_IsHalted() -- CPU_ReadMem(2 bytes @ 0x20000000)  returns TRUE (0007ms, 1048ms total)
T27D4 001:730 JLINK_ReadReg(R15 (PC))  returns 0x20000000 (0001ms, 1042ms total)
T27D4 001:731 JLINK_ClrBPEx(BPHandle = 0x00000011)  returns 0x00 (0000ms, 1042ms total)
T27D4 001:731 JLINK_ReadReg(R0)  returns 0x00000000 (0000ms, 1042ms total)
T27D4 001:731 JLINK_WriteMem(0x200001F4, 0x0E0C Bytes, ...) - Data: F0 00 10 30 8D F8 35 00 9D F8 36 00 20 F0 06 00 ... -- CPU_WriteMem(3596 bytes @ 0x200001F4)  returns 0xE0C (0049ms, 1091ms total)
T27D4 001:781 JLINK_WriteMem(0x20001000, 0x01F4 Bytes, ...) - Data: FF FF FF FF FF FF FF FF FF FF FF FF FF FF FF FF ... -- CPU_WriteMem(500 bytes @ 0x20001000)  returns 0x1F4 (0008ms, 1099ms total)
T27D4 001:789 JLINK_WriteReg(R0, 0x00020000)  returns 0x00 (0000ms, 1099ms total)
T27D4 001:789 JLINK_WriteReg(R1, 0x00000CF0)  returns 0x00 (0000ms, 1099ms total)
T27D4 001:789 JLINK_WriteReg(R2, 0x200001F4)  returns 0x00 (0000ms, 1099ms total)
T27D4 001:789 JLINK_WriteReg(R3, 0x00000000)  returns 0x00 (0000ms, 1099ms total)
T27D4 001:789 JLINK_WriteReg(R4, 0x00000000)  returns 0x00 (0000ms, 1099ms total)
T27D4 001:789 JLINK_WriteReg(R5, 0x00000000)  returns 0x00 (0000ms, 1099ms total)
T27D4 001:789 JLINK_WriteReg(R6, 0x00000000)  returns 0x00 (0000ms, 1099ms total)
T27D4 001:789 JLINK_WriteReg(R7, 0x00000000)  returns 0x00 (0000ms, 1099ms total)
T27D4 001:789 JLINK_WriteReg(R8, 0x00000000)  returns 0x00 (0000ms, 1099ms total)
T27D4 001:789 JLINK_WriteReg(R9, 0x200001F0)  returns 0x00 (0001ms, 1100ms total)
T27D4 001:790 JLINK_WriteReg(R10, 0x00000000)  returns 0x00 (0000ms, 1100ms total)
T27D4 001:790 JLINK_WriteReg(R11, 0x00000000)  returns 0x00 (0000ms, 1100ms total)
T27D4 001:790 JLINK_WriteReg(R12, 0x00000000)  returns 0x00 (0000ms, 1100ms total)
T27D4 001:790 JLINK_WriteReg(R13 (SP), 0x20002000)  returns 0x00 (0000ms, 1100ms total)
T27D4 001:790 JLINK_WriteReg(R14, 0x20000001)  returns 0x00 (0000ms, 1100ms total)
T27D4 001:790 JLINK_WriteReg(R15 (PC), 0x20000120)  returns 0x00 (0000ms, 1100ms total)
T27D4 001:790 JLINK_WriteReg(XPSR, 0x01000000)  returns 0x00 (0000ms, 1100ms total)
T27D4 001:790 JLINK_WriteReg(MSP, 0x20002000)  returns 0x00 (0000ms, 1100ms total)
T27D4 001:790 JLINK_WriteReg(PSP, 0x20002000)  returns 0x00 (0000ms, 1100ms total)
T27D4 001:790 JLINK_WriteReg(CFBP, 0x00000000)  returns 0x00 (0000ms, 1100ms total)
T27D4 001:790 JLINK_SetBPEx(Addr = 0x20000000, Type = 0xFFFFFFF2)  returns 0x00000012 (0000ms, 1100ms total)
T27D4 001:790 JLINK_Go() -- CPU_ReadMem(4 bytes @ 0xE0001000) (0006ms, 1106ms total)
T27D4 001:796 JLINK_IsHalted()  returns FALSE (0002ms, 1108ms total)
T27D4 001:831 JLINK_IsHalted()  returns FALSE (0001ms, 1107ms total)
T27D4 001:833 JLINK_IsHalted()  returns FALSE (0001ms, 1107ms total)
T27D4 001:835 JLINK_IsHalted()  returns FALSE (0001ms, 1107ms total)
T27D4 001:837 JLINK_IsHalted()  returns FALSE (0001ms, 1107ms total)
T27D4 001:859 JLINK_IsHalted() -- CPU_ReadMem(2 bytes @ 0x20000000)  returns TRUE (0008ms, 1114ms total)
T27D4 001:867 JLINK_ReadReg(R15 (PC))  returns 0x20000000 (0001ms, 1107ms total)
T27D4 001:868 JLINK_ClrBPEx(BPHandle = 0x00000012)  returns 0x00 (0000ms, 1107ms total)
T27D4 001:868 JLINK_ReadReg(R0)  returns 0x00000000 (0000ms, 1107ms total)
T27D4 001:868 JLINK_WriteReg(R0, 0x00000002)  returns 0x00 (0000ms, 1107ms total)
T27D4 001:868 JLINK_WriteReg(R1, 0x00000CF0)  returns 0x00 (0000ms, 1107ms total)
T27D4 001:868 JLINK_WriteReg(R2, 0x200001F4)  returns 0x00 (0000ms, 1107ms total)
T27D4 001:868 JLINK_WriteReg(R3, 0x00000000)  returns 0x00 (0000ms, 1107ms total)
T27D4 001:868 JLINK_WriteReg(R4, 0x00000000)  returns 0x00 (0000ms, 1107ms total)
T27D4 001:868 JLINK_WriteReg(R5, 0x00000000)  returns 0x00 (0000ms, 1107ms total)
T27D4 001:868 JLINK_WriteReg(R6, 0x00000000)  returns 0x00 (0000ms, 1107ms total)
T27D4 001:868 JLINK_WriteReg(R7, 0x00000000)  returns 0x00 (0000ms, 1107ms total)
T27D4 001:868 JLINK_WriteReg(R8, 0x00000000)  returns 0x00 (0000ms, 1107ms total)
T27D4 001:868 JLINK_WriteReg(R9, 0x200001F0)  returns 0x00 (0000ms, 1107ms total)
T27D4 001:868 JLINK_WriteReg(R10, 0x00000000)  returns 0x00 (0000ms, 1107ms total)
T27D4 001:868 JLINK_WriteReg(R11, 0x00000000)  returns 0x00 (0000ms, 1107ms total)
T27D4 001:868 JLINK_WriteReg(R12, 0x00000000)  returns 0x00 (0000ms, 1107ms total)
T27D4 001:868 JLINK_WriteReg(R13 (SP), 0x20002000)  returns 0x00 (0000ms, 1107ms total)
T27D4 001:868 JLINK_WriteReg(R14, 0x20000001)  returns 0x00 (0000ms, 1107ms total)
T27D4 001:868 JLINK_WriteReg(R15 (PC), 0x20000058)  returns 0x00 (0000ms, 1107ms total)
T27D4 001:868 JLINK_WriteReg(XPSR, 0x01000000)  returns 0x00 (0000ms, 1107ms total)
T27D4 001:868 JLINK_WriteReg(MSP, 0x20002000)  returns 0x00 (0000ms, 1107ms total)
T27D4 001:868 JLINK_WriteReg(PSP, 0x20002000)  returns 0x00 (0000ms, 1107ms total)
T27D4 001:868 JLINK_WriteReg(CFBP, 0x00000000)  returns 0x00 (0000ms, 1107ms total)
T27D4 001:868 JLINK_SetBPEx(Addr = 0x20000000, Type = 0xFFFFFFF2)  returns 0x00000013 (0000ms, 1107ms total)
T27D4 001:868 JLINK_Go() -- CPU_ReadMem(4 bytes @ 0xE0001000) (0005ms, 1112ms total)
T27D4 001:873 JLINK_IsHalted() -- CPU_ReadMem(2 bytes @ 0x20000000)  returns TRUE (0008ms, 1120ms total)
T27D4 001:881 JLINK_ReadReg(R15 (PC))  returns 0x20000000 (0000ms, 1112ms total)
T27D4 001:881 JLINK_ClrBPEx(BPHandle = 0x00000013)  returns 0x00 (0000ms, 1112ms total)
T27D4 001:881 JLINK_ReadReg(R0)  returns 0x00000000 (0000ms, 1112ms total)
T27D4 001:940 JLINK_WriteMem(0x20000000, 0x01F4 Bytes, ...) - Data: 00 BE 0A E0 0D 78 2D 06 68 40 08 24 40 00 00 D3 ... -- CPU_WriteMem(500 bytes @ 0x20000000)  returns 0x1F4 (0008ms, 1120ms total)
T27D4 001:948 JLINK_WriteReg(R0, 0x00000000)  returns 0x00 (0000ms, 1120ms total)
T27D4 001:948 JLINK_WriteReg(R1, 0x03D09000)  returns 0x00 (0000ms, 1120ms total)
T27D4 001:948 JLINK_WriteReg(R2, 0x00000003)  returns 0x00 (0000ms, 1120ms total)
T27D4 001:948 JLINK_WriteReg(R3, 0x00000000)  returns 0x00 (0000ms, 1120ms total)
T27D4 001:948 JLINK_WriteReg(R4, 0x00000000)  returns 0x00 (0000ms, 1120ms total)
T27D4 001:948 JLINK_WriteReg(R5, 0x00000000)  returns 0x00 (0000ms, 1120ms total)
T27D4 001:948 JLINK_WriteReg(R6, 0x00000000)  returns 0x00 (0000ms, 1120ms total)
T27D4 001:948 JLINK_WriteReg(R7, 0x00000000)  returns 0x00 (0000ms, 1120ms total)
T27D4 001:948 JLINK_WriteReg(R8, 0x00000000)  returns 0x00 (0000ms, 1120ms total)
T27D4 001:948 JLINK_WriteReg(R9, 0x200001F0)  returns 0x00 (0000ms, 1120ms total)
T27D4 001:948 JLINK_WriteReg(R10, 0x00000000)  returns 0x00 (0000ms, 1120ms total)
T27D4 001:948 JLINK_WriteReg(R11, 0x00000000)  returns 0x00 (0000ms, 1120ms total)
T27D4 001:948 JLINK_WriteReg(R12, 0x00000000)  returns 0x00 (0000ms, 1120ms total)
T27D4 001:948 JLINK_WriteReg(R13 (SP), 0x20002000)  returns 0x00 (0000ms, 1120ms total)
T27D4 001:948 JLINK_WriteReg(R14, 0x20000001)  returns 0x00 (0000ms, 1120ms total)
T27D4 001:948 JLINK_WriteReg(R15 (PC), 0x20000028)  returns 0x00 (0000ms, 1120ms total)
T27D4 001:948 JLINK_WriteReg(XPSR, 0x01000000)  returns 0x00 (0000ms, 1120ms total)
T27D4 001:948 JLINK_WriteReg(MSP, 0x20002000)  returns 0x00 (0000ms, 1120ms total)
T27D4 001:948 JLINK_WriteReg(PSP, 0x20002000)  returns 0x00 (0000ms, 1120ms total)
T27D4 001:948 JLINK_WriteReg(CFBP, 0x00000000)  returns 0x00 (0000ms, 1120ms total)
T27D4 001:948 JLINK_SetBPEx(Addr = 0x20000000, Type = 0xFFFFFFF2) -- CPU_ReadMem(2 bytes @ 0x20000000)  returns 0x00000014 (0001ms, 1121ms total)
T27D4 001:949 JLINK_Go() -- CPU_WriteMem(2 bytes @ 0x20000000) -- CPU_ReadMem(4 bytes @ 0xE0001000) (0005ms, 1126ms total)
T27D4 001:954 JLINK_IsHalted() -- CPU_ReadMem(2 bytes @ 0x20000000)  returns TRUE (0007ms, 1133ms total)
T27D4 001:961 JLINK_ReadReg(R15 (PC))  returns 0x20000000 (0000ms, 1126ms total)
T27D4 001:961 JLINK_ClrBPEx(BPHandle = 0x00000014)  returns 0x00 (0001ms, 1127ms total)
T27D4 001:962 JLINK_ReadReg(R0)  returns 0x00000000 (0000ms, 1127ms total)
T27D4 001:962 JLINK_WriteMem(0x200001F4, 0x0E0C Bytes, ...) - Data: 40 49 00 20 05 C5 01 00 0D C5 01 00 0F C5 01 00 ... -- CPU_WriteMem(3596 bytes @ 0x200001F4)  returns 0xE0C (0049ms, 1176ms total)
T27D4 002:011 JLINK_WriteMem(0x20001000, 0x01F4 Bytes, ...) - Data: 05 21 11 60 56 49 78 31 0C 60 55 49 08 31 0B 60 ... -- CPU_WriteMem(500 bytes @ 0x20001000)  returns 0x1F4 (0008ms, 1184ms total)
T27D4 002:019 JLINK_WriteReg(R0, 0x0001C000)  returns 0x00 (0000ms, 1184ms total)
T27D4 002:019 JLINK_WriteReg(R1, 0x00001000)  returns 0x00 (0000ms, 1184ms total)
T27D4 002:019 JLINK_WriteReg(R2, 0x200001F4)  returns 0x00 (0000ms, 1184ms total)
T27D4 002:019 JLINK_WriteReg(R3, 0x00000000)  returns 0x00 (0000ms, 1184ms total)
T27D4 002:019 JLINK_WriteReg(R4, 0x00000000)  returns 0x00 (0000ms, 1184ms total)
T27D4 002:019 JLINK_WriteReg(R5, 0x00000000)  returns 0x00 (0000ms, 1184ms total)
T27D4 002:019 JLINK_WriteReg(R6, 0x00000000)  returns 0x00 (0000ms, 1184ms total)
T27D4 002:019 JLINK_WriteReg(R7, 0x00000000)  returns 0x00 (0000ms, 1184ms total)
T27D4 002:019 JLINK_WriteReg(R8, 0x00000000)  returns 0x00 (0001ms, 1185ms total)
T27D4 002:020 JLINK_WriteReg(R9, 0x200001F0)  returns 0x00 (0000ms, 1185ms total)
T27D4 002:020 JLINK_WriteReg(R10, 0x00000000)  returns 0x00 (0000ms, 1185ms total)
T27D4 002:020 JLINK_WriteReg(R11, 0x00000000)  returns 0x00 (0000ms, 1185ms total)
T27D4 002:020 JLINK_WriteReg(R12, 0x00000000)  returns 0x00 (0000ms, 1185ms total)
T27D4 002:020 JLINK_WriteReg(R13 (SP), 0x20002000)  returns 0x00 (0000ms, 1185ms total)
T27D4 002:020 JLINK_WriteReg(R14, 0x20000001)  returns 0x00 (0000ms, 1185ms total)
T27D4 002:020 JLINK_WriteReg(R15 (PC), 0x20000192)  returns 0x00 (0000ms, 1185ms total)
T27D4 002:020 JLINK_WriteReg(XPSR, 0x01000000)  returns 0x00 (0000ms, 1185ms total)
T27D4 002:020 JLINK_WriteReg(MSP, 0x20002000)  returns 0x00 (0000ms, 1185ms total)
T27D4 002:020 JLINK_WriteReg(PSP, 0x20002000)  returns 0x00 (0000ms, 1185ms total)
T27D4 002:020 JLINK_WriteReg(CFBP, 0x00000000)  returns 0x00 (0000ms, 1185ms total)
T27D4 002:020 JLINK_SetBPEx(Addr = 0x20000000, Type = 0xFFFFFFF2)  returns 0x00000015 (0000ms, 1185ms total)
T27D4 002:020 JLINK_Go() -- CPU_ReadMem(4 bytes @ 0xE0001000) (0007ms, 1192ms total)
T27D4 002:027 JLINK_IsHalted() -- CPU_ReadMem(2 bytes @ 0x20000000)  returns TRUE (0010ms, 1202ms total)
T27D4 002:037 JLINK_ReadReg(R15 (PC))  returns 0x20000000 (0000ms, 1192ms total)
T27D4 002:037 JLINK_ClrBPEx(BPHandle = 0x00000015)  returns 0x00 (0000ms, 1192ms total)
T27D4 002:037 JLINK_ReadReg(R0)  returns 0x0001D000 (0000ms, 1192ms total)
T27D4 002:038 JLINK_WriteMem(0x200001F4, 0x0E0C Bytes, ...) - Data: 01 28 20 D0 A5 EB 0B 00 40 1C 5F EA 00 0A 4F F0 ... -- CPU_WriteMem(3596 bytes @ 0x200001F4)  returns 0xE0C (0049ms, 1241ms total)
T27D4 002:087 JLINK_WriteMem(0x20001000, 0x01F4 Bytes, ...) - Data: 0D 49 68 46 01 F0 E2 FC 00 28 04 D1 9D F8 1D 00 ... -- CPU_WriteMem(500 bytes @ 0x20001000)  returns 0x1F4 (0009ms, 1250ms total)
T27D4 002:096 JLINK_WriteReg(R0, 0x0001D000)  returns 0x00 (0000ms, 1250ms total)
T27D4 002:096 JLINK_WriteReg(R1, 0x00001000)  returns 0x00 (0000ms, 1250ms total)
T27D4 002:096 JLINK_WriteReg(R2, 0x200001F4)  returns 0x00 (0000ms, 1250ms total)
T27D4 002:096 JLINK_WriteReg(R3, 0x00000000)  returns 0x00 (0000ms, 1250ms total)
T27D4 002:096 JLINK_WriteReg(R4, 0x00000000)  returns 0x00 (0000ms, 1250ms total)
T27D4 002:096 JLINK_WriteReg(R5, 0x00000000)  returns 0x00 (0000ms, 1250ms total)
T27D4 002:096 JLINK_WriteReg(R6, 0x00000000)  returns 0x00 (0000ms, 1250ms total)
T27D4 002:096 JLINK_WriteReg(R7, 0x00000000)  returns 0x00 (0000ms, 1250ms total)
T27D4 002:096 JLINK_WriteReg(R8, 0x00000000)  returns 0x00 (0000ms, 1250ms total)
T27D4 002:096 JLINK_WriteReg(R9, 0x200001F0)  returns 0x00 (0000ms, 1250ms total)
T27D4 002:096 JLINK_WriteReg(R10, 0x00000000)  returns 0x00 (0000ms, 1250ms total)
T27D4 002:096 JLINK_WriteReg(R11, 0x00000000)  returns 0x00 (0000ms, 1250ms total)
T27D4 002:096 JLINK_WriteReg(R12, 0x00000000)  returns 0x00 (0000ms, 1250ms total)
T27D4 002:097 JLINK_WriteReg(R13 (SP), 0x20002000)  returns 0x00 (0000ms, 1250ms total)
T27D4 002:097 JLINK_WriteReg(R14, 0x20000001)  returns 0x00 (0000ms, 1250ms total)
T27D4 002:097 JLINK_WriteReg(R15 (PC), 0x20000192)  returns 0x00 (0000ms, 1250ms total)
T27D4 002:097 JLINK_WriteReg(XPSR, 0x01000000)  returns 0x00 (0000ms, 1250ms total)
T27D4 002:097 JLINK_WriteReg(MSP, 0x20002000)  returns 0x00 (0000ms, 1250ms total)
T27D4 002:097 JLINK_WriteReg(PSP, 0x20002000)  returns 0x00 (0000ms, 1250ms total)
T27D4 002:097 JLINK_WriteReg(CFBP, 0x00000000)  returns 0x00 (0000ms, 1250ms total)
T27D4 002:097 JLINK_SetBPEx(Addr = 0x20000000, Type = 0xFFFFFFF2)  returns 0x00000016 (0000ms, 1250ms total)
T27D4 002:097 JLINK_Go() -- CPU_ReadMem(4 bytes @ 0xE0001000) (0006ms, 1256ms total)
T27D4 002:103 JLINK_IsHalted() -- CPU_ReadMem(2 bytes @ 0x20000000)  returns TRUE (0010ms, 1266ms total)
T27D4 002:113 JLINK_ReadReg(R15 (PC))  returns 0x20000000 (0000ms, 1256ms total)
T27D4 002:113 JLINK_ClrBPEx(BPHandle = 0x00000016)  returns 0x00 (0000ms, 1256ms total)
T27D4 002:113 JLINK_ReadReg(R0)  returns 0x0001E000 (0000ms, 1256ms total)
T27D4 002:114 JLINK_WriteMem(0x200001F4, 0x0E0C Bytes, ...) - Data: D9 B1 1C 4A AC 32 A2 F1 0C 01 8A 60 81 62 A3 6A ... -- CPU_WriteMem(3596 bytes @ 0x200001F4)  returns 0xE0C (0051ms, 1307ms total)
T27D4 002:165 JLINK_WriteMem(0x20001000, 0x01F4 Bytes, ...) - Data: 2F 20 FD F7 3D FB 00 E0 04 E0 BD E8 F0 5F 11 20 ... -- CPU_WriteMem(500 bytes @ 0x20001000)  returns 0x1F4 (0008ms, 1315ms total)
T27D4 002:173 JLINK_WriteReg(R0, 0x0001E000)  returns 0x00 (0000ms, 1315ms total)
T27D4 002:173 JLINK_WriteReg(R1, 0x00001000)  returns 0x00 (0000ms, 1315ms total)
T27D4 002:173 JLINK_WriteReg(R2, 0x200001F4)  returns 0x00 (0000ms, 1315ms total)
T27D4 002:173 JLINK_WriteReg(R3, 0x00000000)  returns 0x00 (0000ms, 1315ms total)
T27D4 002:174 JLINK_WriteReg(R4, 0x00000000)  returns 0x00 (0000ms, 1316ms total)
T27D4 002:174 JLINK_WriteReg(R5, 0x00000000)  returns 0x00 (0000ms, 1316ms total)
T27D4 002:174 JLINK_WriteReg(R6, 0x00000000)  returns 0x00 (0000ms, 1316ms total)
T27D4 002:174 JLINK_WriteReg(R7, 0x00000000)  returns 0x00 (0000ms, 1316ms total)
T27D4 002:174 JLINK_WriteReg(R8, 0x00000000)  returns 0x00 (0000ms, 1316ms total)
T27D4 002:174 JLINK_WriteReg(R9, 0x200001F0)  returns 0x00 (0000ms, 1316ms total)
T27D4 002:174 JLINK_WriteReg(R10, 0x00000000)  returns 0x00 (0000ms, 1316ms total)
T27D4 002:174 JLINK_WriteReg(R11, 0x00000000)  returns 0x00 (0000ms, 1316ms total)
T27D4 002:174 JLINK_WriteReg(R12, 0x00000000)  returns 0x00 (0000ms, 1316ms total)
T27D4 002:174 JLINK_WriteReg(R13 (SP), 0x20002000)  returns 0x00 (0000ms, 1316ms total)
T27D4 002:174 JLINK_WriteReg(R14, 0x20000001)  returns 0x00 (0000ms, 1316ms total)
T27D4 002:174 JLINK_WriteReg(R15 (PC), 0x20000192)  returns 0x00 (0000ms, 1316ms total)
T27D4 002:174 JLINK_WriteReg(XPSR, 0x01000000)  returns 0x00 (0000ms, 1316ms total)
T27D4 002:174 JLINK_WriteReg(MSP, 0x20002000)  returns 0x00 (0000ms, 1316ms total)
T27D4 002:174 JLINK_WriteReg(PSP, 0x20002000)  returns 0x00 (0001ms, 1317ms total)
T27D4 002:175 JLINK_WriteReg(CFBP, 0x00000000)  returns 0x00 (0000ms, 1317ms total)
T27D4 002:175 JLINK_SetBPEx(Addr = 0x20000000, Type = 0xFFFFFFF2)  returns 0x00000017 (0000ms, 1317ms total)
T27D4 002:175 JLINK_Go() -- CPU_ReadMem(4 bytes @ 0xE0001000) (0005ms, 1322ms total)
T27D4 002:180 JLINK_IsHalted() -- CPU_ReadMem(2 bytes @ 0x20000000)  returns TRUE (0010ms, 1332ms total)
T27D4 002:190 JLINK_ReadReg(R15 (PC))  returns 0x20000000 (0000ms, 1322ms total)
T27D4 002:190 JLINK_ClrBPEx(BPHandle = 0x00000017)  returns 0x00 (0001ms, 1323ms total)
T27D4 002:191 JLINK_ReadReg(R0)  returns 0x0001F000 (0000ms, 1323ms total)
T27D4 002:192 JLINK_WriteMem(0x200001F4, 0x0E0C Bytes, ...) - Data: 03 20 70 47 D8 28 00 20 2D E9 F0 41 12 4E 07 46 ... -- CPU_WriteMem(3596 bytes @ 0x200001F4)  returns 0xE0C (0049ms, 1372ms total)
T27D4 002:241 JLINK_WriteMem(0x20001000, 0x01F4 Bytes, ...) - Data: 01 20 20 70 07 20 FE F7 EF FD 08 B1 FD F7 B4 FE ... -- CPU_WriteMem(500 bytes @ 0x20001000)  returns 0x1F4 (0009ms, 1381ms total)
T27D4 002:250 JLINK_WriteReg(R0, 0x0001F000)  returns 0x00 (0000ms, 1381ms total)
T27D4 002:250 JLINK_WriteReg(R1, 0x00001000)  returns 0x00 (0000ms, 1381ms total)
T27D4 002:250 JLINK_WriteReg(R2, 0x200001F4)  returns 0x00 (0000ms, 1381ms total)
T27D4 002:250 JLINK_WriteReg(R3, 0x00000000)  returns 0x00 (0000ms, 1381ms total)
T27D4 002:250 JLINK_WriteReg(R4, 0x00000000)  returns 0x00 (0000ms, 1381ms total)
T27D4 002:250 JLINK_WriteReg(R5, 0x00000000)  returns 0x00 (0000ms, 1381ms total)
T27D4 002:250 JLINK_WriteReg(R6, 0x00000000)  returns 0x00 (0000ms, 1381ms total)
T27D4 002:250 JLINK_WriteReg(R7, 0x00000000)  returns 0x00 (0000ms, 1381ms total)
T27D4 002:250 JLINK_WriteReg(R8, 0x00000000)  returns 0x00 (0000ms, 1381ms total)
T27D4 002:250 JLINK_WriteReg(R9, 0x200001F0)  returns 0x00 (0000ms, 1381ms total)
T27D4 002:250 JLINK_WriteReg(R10, 0x00000000)  returns 0x00 (0000ms, 1381ms total)
T27D4 002:250 JLINK_WriteReg(R11, 0x00000000)  returns 0x00 (0000ms, 1381ms total)
T27D4 002:250 JLINK_WriteReg(R12, 0x00000000)  returns 0x00 (0000ms, 1381ms total)
T27D4 002:251 JLINK_WriteReg(R13 (SP), 0x20002000)  returns 0x00 (0000ms, 1382ms total)
T27D4 002:251 JLINK_WriteReg(R14, 0x20000001)  returns 0x00 (0000ms, 1382ms total)
T27D4 002:251 JLINK_WriteReg(R15 (PC), 0x20000192)  returns 0x00 (0000ms, 1382ms total)
T27D4 002:251 JLINK_WriteReg(XPSR, 0x01000000)  returns 0x00 (0000ms, 1382ms total)
T27D4 002:251 JLINK_WriteReg(MSP, 0x20002000)  returns 0x00 (0000ms, 1382ms total)
T27D4 002:251 JLINK_WriteReg(PSP, 0x20002000)  returns 0x00 (0000ms, 1382ms total)
T27D4 002:251 JLINK_WriteReg(CFBP, 0x00000000)  returns 0x00 (0000ms, 1382ms total)
T27D4 002:251 JLINK_SetBPEx(Addr = 0x20000000, Type = 0xFFFFFFF2)  returns 0x00000018 (0000ms, 1382ms total)
T27D4 002:251 JLINK_Go() -- CPU_ReadMem(4 bytes @ 0xE0001000) (0006ms, 1388ms total)
T27D4 002:257 JLINK_IsHalted() -- CPU_ReadMem(2 bytes @ 0x20000000)  returns TRUE (0010ms, 1398ms total)
T27D4 002:267 JLINK_ReadReg(R15 (PC))  returns 0x20000000 (0000ms, 1388ms total)
T27D4 002:267 JLINK_ClrBPEx(BPHandle = 0x00000018)  returns 0x00 (0000ms, 1388ms total)
T27D4 002:267 JLINK_ReadReg(R0)  returns 0x00020000 (0000ms, 1388ms total)
T27D4 002:268 JLINK_WriteMem(0x200001F4, 0x0E0C Bytes, ...) - Data: F0 00 10 30 8D F8 35 00 9D F8 36 00 20 F0 06 00 ... -- CPU_WriteMem(3596 bytes @ 0x200001F4)  returns 0xE0C (0050ms, 1438ms total)
T27D4 002:318 JLINK_WriteMem(0x20001000, 0x01F4 Bytes, ...) - Data: 00 00 00 00 00 00 00 00 00 00 00 00 00 00 00 00 ... -- CPU_WriteMem(500 bytes @ 0x20001000)  returns 0x1F4 (0008ms, 1446ms total)
T27D4 002:326 JLINK_WriteReg(R0, 0x00020000)  returns 0x00 (0000ms, 1446ms total)
T27D4 002:326 JLINK_WriteReg(R1, 0x00000CF0)  returns 0x00 (0000ms, 1446ms total)
T27D4 002:326 JLINK_WriteReg(R2, 0x200001F4)  returns 0x00 (0000ms, 1446ms total)
T27D4 002:326 JLINK_WriteReg(R3, 0x00000000)  returns 0x00 (0001ms, 1447ms total)
T27D4 002:327 JLINK_WriteReg(R4, 0x00000000)  returns 0x00 (0000ms, 1447ms total)
T27D4 002:327 JLINK_WriteReg(R5, 0x00000000)  returns 0x00 (0000ms, 1447ms total)
T27D4 002:327 JLINK_WriteReg(R6, 0x00000000)  returns 0x00 (0000ms, 1447ms total)
T27D4 002:327 JLINK_WriteReg(R7, 0x00000000)  returns 0x00 (0000ms, 1447ms total)
T27D4 002:327 JLINK_WriteReg(R8, 0x00000000)  returns 0x00 (0000ms, 1447ms total)
T27D4 002:327 JLINK_WriteReg(R9, 0x200001F0)  returns 0x00 (0000ms, 1447ms total)
T27D4 002:327 JLINK_WriteReg(R10, 0x00000000)  returns 0x00 (0000ms, 1447ms total)
T27D4 002:327 JLINK_WriteReg(R11, 0x00000000)  returns 0x00 (0000ms, 1447ms total)
T27D4 002:327 JLINK_WriteReg(R12, 0x00000000)  returns 0x00 (0000ms, 1447ms total)
T27D4 002:327 JLINK_WriteReg(R13 (SP), 0x20002000)  returns 0x00 (0000ms, 1447ms total)
T27D4 002:327 JLINK_WriteReg(R14, 0x20000001)  returns 0x00 (0000ms, 1447ms total)
T27D4 002:327 JLINK_WriteReg(R15 (PC), 0x20000192)  returns 0x00 (0000ms, 1447ms total)
T27D4 002:327 JLINK_WriteReg(XPSR, 0x01000000)  returns 0x00 (0000ms, 1447ms total)
T27D4 002:327 JLINK_WriteReg(MSP, 0x20002000)  returns 0x00 (0000ms, 1447ms total)
T27D4 002:327 JLINK_WriteReg(PSP, 0x20002000)  returns 0x00 (0001ms, 1448ms total)
T27D4 002:328 JLINK_WriteReg(CFBP, 0x00000000)  returns 0x00 (0000ms, 1448ms total)
T27D4 002:328 JLINK_SetBPEx(Addr = 0x20000000, Type = 0xFFFFFFF2)  returns 0x00000019 (0000ms, 1448ms total)
T27D4 002:328 JLINK_Go() -- CPU_ReadMem(4 bytes @ 0xE0001000) (0005ms, 1453ms total)
T27D4 002:333 JLINK_IsHalted() -- CPU_ReadMem(2 bytes @ 0x20000000)  returns TRUE (0010ms, 1463ms total)
T27D4 002:343 JLINK_ReadReg(R15 (PC))  returns 0x20000000 (0000ms, 1453ms total)
T27D4 002:343 JLINK_ClrBPEx(BPHandle = 0x00000019)  returns 0x00 (0000ms, 1453ms total)
T27D4 002:343 JLINK_ReadReg(R0)  returns 0x00020CF0 (0001ms, 1454ms total)
T27D4 002:345 JLINK_WriteReg(R0, 0x00000003)  returns 0x00 (0000ms, 1454ms total)
T27D4 002:345 JLINK_WriteReg(R1, 0x00000CF0)  returns 0x00 (0000ms, 1454ms total)
T27D4 002:345 JLINK_WriteReg(R2, 0x200001F4)  returns 0x00 (0000ms, 1454ms total)
T27D4 002:345 JLINK_WriteReg(R3, 0x00000000)  returns 0x00 (0000ms, 1454ms total)
T27D4 002:345 JLINK_WriteReg(R4, 0x00000000)  returns 0x00 (0000ms, 1454ms total)
T27D4 002:345 JLINK_WriteReg(R5, 0x00000000)  returns 0x00 (0000ms, 1454ms total)
T27D4 002:345 JLINK_WriteReg(R6, 0x00000000)  returns 0x00 (0000ms, 1454ms total)
T27D4 002:345 JLINK_WriteReg(R7, 0x00000000)  returns 0x00 (0000ms, 1454ms total)
T27D4 002:345 JLINK_WriteReg(R8, 0x00000000)  returns 0x00 (0000ms, 1454ms total)
T27D4 002:345 JLINK_WriteReg(R9, 0x200001F0)  returns 0x00 (0000ms, 1454ms total)
T27D4 002:345 JLINK_WriteReg(R10, 0x00000000)  returns 0x00 (0001ms, 1455ms total)
T27D4 002:346 JLINK_WriteReg(R11, 0x00000000)  returns 0x00 (0000ms, 1455ms total)
T27D4 002:346 JLINK_WriteReg(R12, 0x00000000)  returns 0x00 (0000ms, 1455ms total)
T27D4 002:346 JLINK_WriteReg(R13 (SP), 0x20002000)  returns 0x00 (0000ms, 1455ms total)
T27D4 002:346 JLINK_WriteReg(R14, 0x20000001)  returns 0x00 (0000ms, 1455ms total)
T27D4 002:346 JLINK_WriteReg(R15 (PC), 0x20000058)  returns 0x00 (0000ms, 1455ms total)
T27D4 002:346 JLINK_WriteReg(XPSR, 0x01000000)  returns 0x00 (0000ms, 1455ms total)
T27D4 002:346 JLINK_WriteReg(MSP, 0x20002000)  returns 0x00 (0000ms, 1455ms total)
T27D4 002:346 JLINK_WriteReg(PSP, 0x20002000)  returns 0x00 (0000ms, 1455ms total)
T27D4 002:346 JLINK_WriteReg(CFBP, 0x00000000)  returns 0x00 (0000ms, 1455ms total)
T27D4 002:346 JLINK_SetBPEx(Addr = 0x20000000, Type = 0xFFFFFFF2)  returns 0x0000001A (0000ms, 1455ms total)
T27D4 002:346 JLINK_Go() -- CPU_ReadMem(4 bytes @ 0xE0001000) (0006ms, 1461ms total)
T27D4 002:352 JLINK_IsHalted() -- CPU_ReadMem(2 bytes @ 0x20000000)  returns TRUE (0010ms, 1471ms total)
T27D4 002:362 JLINK_ReadReg(R15 (PC))  returns 0x20000000 (0000ms, 1461ms total)
T27D4 002:362 JLINK_ClrBPEx(BPHandle = 0x0000001A)  returns 0x00 (0000ms, 1461ms total)
T27D4 002:362 JLINK_ReadReg(R0)  returns 0x00000000 (0000ms, 1461ms total)
T27D4 002:419 JLINK_WriteMem(0x20000000, 0x0002 Bytes, ...) - Data: FE E7 -- CPU_WriteMem(2 bytes @ 0x20000000)  returns 0x02 (0002ms, 1463ms total)
T27D4 002:421 JLINK_SetResetType(JLINKARM_RESET_TYPE_NORMAL)  returns JLINKARM_RESET_TYPE_NORMAL (0000ms, 1463ms total)
T27D4 002:421 JLINK_Reset() -- CPU_WriteMem(4 bytes @ 0xE000EDF0) -- CPU_WriteMem(4 bytes @ 0xE000EDFC) >0x35 TIF> -- CPU_WriteMem(4 bytes @ 0xE000ED0C) -- CPU_ReadMem(4 bytes @ 0xE000EDF0) -- CPU_ReadMem(4 bytes @ 0xE000EDF0) -- CPU_WriteMem(4 bytes @ 0xE000EDF0) -- CPU_WriteMem(4 bytes @ 0xE000EDFC) -- CPU is running -- CPU_ReadMem(4 bytes @ 0xE000EDF0) -- CPU_WriteMem(4 bytes @ 0xE0002000) -- CPU_ReadMem(4 bytes @ 0xE000EDFC) -- CPU_ReadMem(4 bytes @ 0xE0001000) (0033ms, 1496ms total)
T27D4 002:454 JLINK_Go() -- CPU_ReadMem(4 bytes @ 0xE0001000) -- CPU_WriteMem(4 bytes @ 0xE0002008) -- CPU_WriteMem(4 bytes @ 0xE000200C) -- CPU_WriteMem(4 bytes @ 0xE0002010) -- CPU_WriteMem(4 bytes @ 0xE0002014) -- CPU_WriteMem(4 bytes @ 0xE0002018) -- CPU_WriteMem(4 bytes @ 0xE000201C) -- CPU_WriteMem(4 bytes @ 0xE0001004) (0008ms, 1504ms total)
T27D4 002:479 JLINK_Close() -- CPU is running -- CPU_WriteMem(4 bytes @ 0xE0002008) -- CPU is running -- CPU_WriteMem(4 bytes @ 0xE000200C) -- CPU is running -- CPU_WriteMem(4 bytes @ 0xE0002010) -- CPU is running -- CPU_WriteMem(4 bytes @ 0xE0002014) -- CPU is running -- CPU_WriteMem(4 bytes @ 0xE0002018) -- CPU is running -- CPU_WriteMem(4 bytes @ 0xE000201C) >0x42 TIF> >0x28 TIF> >0x35 TIF> (0014ms, 1518ms total)
T27D4 002:479  (0014ms, 1518ms total)
T27D4 002:479 Closed (0014ms, 1518ms total)
